-- Merging decision tree log ---
manifest
ADDED from /Users/admin/Desktop/Sismi/CountryList/GITFOLDER/assignment/android/app/src/main/AndroidManifest.xml:1:1-30:12
INJECTED from /Users/admin/Desktop/Sismi/CountryList/GITFOLDER/assignment/android/app/src/main/AndroidManifest.xml:1:1-30:12
INJECTED from /Users/admin/Desktop/Sismi/CountryList/GITFOLDER/assignment/android/app/src/main/AndroidManifest.xml:1:1-30:12
INJECTED from /Users/admin/Desktop/Sismi/CountryList/GITFOLDER/assignment/android/app/src/main/AndroidManifest.xml:1:1-30:12
MERGED from /Users/admin/Desktop/Sismi/CountryList/GITFOLDER/assignment/android/app/src/main/AndroidManifest.xml:1:1-30:12
MERGED from [com.facebook.flipper:flipper-network-plugin:0.182.0] /Users/admin/.gradle/caches/transforms-3/e47626a30834dcd66576d826bae55315/transformed/jetified-flipper-network-plugin-0.182.0/AndroidManifest.xml:8:1-15:12
MERGED from [com.facebook.flipper:flipper-fresco-plugin:0.182.0] /Users/admin/.gradle/caches/transforms-3/927874504f02e490d8ef5fc541319ddd/transformed/jetified-flipper-fresco-plugin-0.182.0/AndroidManifest.xml:8:1-15:12
MERGED from [com.facebook.flipper:flipper:0.182.0] /Users/admin/.gradle/caches/transforms-3/e13f88164840fe641a466d05cd8edac7/transformed/jetified-flipper-0.182.0/AndroidManifest.xml:8:1-18:12
MERGED from [:react-native-maps] /Users/admin/Desktop/Sismi/CountryList/GITFOLDER/assignment/node_modules/react-native-maps/android/build/intermediates/merged_manifest/debug/AndroidManifest.xml:2:1-7:12
MERGED from [:react-native-safe-area-context] /Users/admin/Desktop/Sismi/CountryList/GITFOLDER/assignment/node_modules/react-native-safe-area-context/android/build/intermediates/merged_manifest/debug/AndroidManifest.xml:2:1-7:12
MERGED from [:react-native-screens] /Users/admin/Desktop/Sismi/CountryList/GITFOLDER/assignment/node_modules/react-native-screens/android/build/intermediates/merged_manifest/debug/AndroidManifest.xml:2:1-7:12
MERGED from [:react-native-svg] /Users/admin/Desktop/Sismi/CountryList/GITFOLDER/assignment/node_modules/react-native-svg/android/build/intermediates/merged_manifest/debug/AndroidManifest.xml:2:1-7:12
MERGED from [:react-native-vector-icons] /Users/admin/Desktop/Sismi/CountryList/GITFOLDER/assignment/node_modules/react-native-vector-icons/android/build/intermediates/merged_manifest/debug/AndroidManifest.xml:2:1-7:12
MERGED from [com.facebook.react:react-android:0.72.3] /Users/admin/.gradle/caches/transforms-3/c89beba49bda3c7ff0db4787685e5ed7/transformed/jetified-react-android-0.72.3-debug/AndroidManifest.xml:2:1-7:12
MERGED from [com.facebook.react:hermes-android:0.72.3] /Users/admin/.gradle/caches/transforms-3/430a607cf6d546758ce98bd168677a7b/transformed/jetified-hermes-android-0.72.3-debug/AndroidManifest.xml:2:1-7:12
MERGED from [com.facebook.fresco:imagepipeline-okhttp3:2.5.0] /Users/admin/.gradle/caches/transforms-3/463b085172aadec89519c358dac4e9e6/transformed/jetified-imagepipeline-okhttp3-2.5.0/AndroidManifest.xml:2:1-9:12
MERGED from [androidx.core:core-ktx:1.5.0] /Users/admin/.gradle/caches/transforms-3/c87b97424659a3cc7da5af62d81a0b78/transformed/jetified-core-ktx-1.5.0/AndroidManifest.xml:2:1-9:12
MERGED from [com.android.ndk.thirdparty:openssl:1.1.1l-beta-1] /Users/admin/.gradle/caches/transforms-3/9aee53ed1b97b29f8fa14a865487ca10/transformed/jetified-openssl-1.1.1l-beta-1/AndroidManifest.xml:1:1-3:12
MERGED from [com.facebook.fbjni:fbjni:0.3.0] /Users/admin/.gradle/caches/transforms-3/34c2120d0d3cd8dc97826fc02c9e8fc4/transformed/jetified-fbjni-0.3.0/AndroidManifest.xml:2:1-9:12
MERGED from [com.facebook.fresco:flipper:2.6.0] /Users/admin/.gradle/caches/transforms-3/cc5767ebbd99d907420b3ba47b91c250/transformed/jetified-flipper-2.6.0/AndroidManifest.xml:2:1-9:12
MERGED from [com.facebook.fresco:stetho:2.6.0] /Users/admin/.gradle/caches/transforms-3/0e5cd9152c318e4343acbf9c30cc46b4/transformed/jetified-stetho-2.6.0/AndroidManifest.xml:2:1-9:12
MERGED from [com.facebook.fresco:fresco:2.6.0] /Users/admin/.gradle/caches/transforms-3/ff33f53f7898d508ffd12de8c953352e/transformed/jetified-fresco-2.6.0/AndroidManifest.xml:2:1-9:12
MERGED from [com.facebook.fresco:soloader:2.6.0] /Users/admin/.gradle/caches/transforms-3/b6aa16e9dd6ef2bbcc667631ac72f81b/transformed/jetified-soloader-2.6.0/AndroidManifest.xml:2:1-9:12
MERGED from [com.facebook.fresco:drawee:2.6.0] /Users/admin/.gradle/caches/transforms-3/8ebb0988b078846cf36008451821bdf1/transformed/jetified-drawee-2.6.0/AndroidManifest.xml:2:1-9:12
MERGED from [com.facebook.fresco:nativeimagefilters:2.6.0] /Users/admin/.gradle/caches/transforms-3/db292e509702f91f8389bb56cd1190ea/transformed/jetified-nativeimagefilters-2.6.0/AndroidManifest.xml:2:1-9:12
MERGED from [com.facebook.fresco:memory-type-native:2.6.0] /Users/admin/.gradle/caches/transforms-3/fbfb3116d2cd0d931ae8fc882aeced9a/transformed/jetified-memory-type-native-2.6.0/AndroidManifest.xml:2:1-9:12
MERGED from [com.facebook.fresco:memory-type-java:2.6.0] /Users/admin/.gradle/caches/transforms-3/f146b2df3fa9336e720678320cc284f9/transformed/jetified-memory-type-java-2.6.0/AndroidManifest.xml:2:1-9:12
MERGED from [com.facebook.fresco:imagepipeline-native:2.6.0] /Users/admin/.gradle/caches/transforms-3/7a020d8ab0e039c51070684c633d45c0/transformed/jetified-imagepipeline-native-2.6.0/AndroidManifest.xml:2:1-9:12
MERGED from [com.facebook.soloader:soloader:0.10.5] /Users/admin/.gradle/caches/transforms-3/ec3312a013bd7d8a70466a1977a1dba4/transformed/jetified-soloader-0.10.5/AndroidManifest.xml:2:1-17:12
MERGED from [com.facebook.fresco:memory-type-ashmem:2.6.0] /Users/admin/.gradle/caches/transforms-3/7a33bf69dcea657d1e4bb1bda26d0a68/transformed/jetified-memory-type-ashmem-2.6.0/AndroidManifest.xml:2:1-9:12
MERGED from [com.facebook.fresco:imagepipeline:2.6.0] /Users/admin/.gradle/caches/transforms-3/988367ce945150ad955bc42f33122470/transformed/jetified-imagepipeline-2.6.0/AndroidManifest.xml:2:1-9:12
MERGED from [com.facebook.fresco:nativeimagetranscoder:2.6.0] /Users/admin/.gradle/caches/transforms-3/fd58a95d6d667387129ce8a3f54b74ad/transformed/jetified-nativeimagetranscoder-2.6.0/AndroidManifest.xml:2:1-9:12
MERGED from [com.facebook.fresco:imagepipeline-base:2.6.0] /Users/admin/.gradle/caches/transforms-3/e7a05d09ffaa90425e2121f36a5185b6/transformed/jetified-imagepipeline-base-2.6.0/AndroidManifest.xml:2:1-9:12
MERGED from [com.google.android.material:material:1.1.0] /Users/admin/.gradle/caches/transforms-3/9300c7fc5aff0974f1ee709fb212c45e/transformed/material-1.1.0/AndroidManifest.xml:17:1-24:12
MERGED from [androidx.appcompat:appcompat:1.4.1] /Users/admin/.gradle/caches/transforms-3/b14585e0ae3314e7a64bac79062dab1c/transformed/appcompat-1.4.1/AndroidManifest.xml:17:1-24:12
MERGED from [androidx.work:work-runtime:2.7.1] /Users/admin/.gradle/caches/transforms-3/a93c68fb1d2792ca1942259f5092d83b/transformed/work-runtime-2.7.1/AndroidManifest.xml:17:1-145:12
MERGED from [androidx.room:room-runtime:2.2.5] /Users/admin/.gradle/caches/transforms-3/32f4dc14231a603560d048af81f18073/transformed/room-runtime-2.2.5/AndroidManifest.xml:17:1-31:12
MERGED from [androidx.sqlite:sqlite-framework:2.2.0] /Users/admin/.gradle/caches/transforms-3/aed854fb12aa7a4f325a5318b63d5aa8/transformed/sqlite-framework-2.2.0/AndroidManifest.xml:17:1-24:12
MERGED from [androidx.appcompat:appcompat-resources:1.4.1] /Users/admin/.gradle/caches/transforms-3/30de096d5ba1553f19f74e52c1ed5c94/transformed/jetified-appcompat-resources-1.4.1/AndroidManifest.xml:17:1-24:12
MERGED from [androidx.autofill:autofill:1.1.0] /Users/admin/.gradle/caches/transforms-3/b2c399022120a5a16a836a433ff38c79/transformed/jetified-autofill-1.1.0/AndroidManifest.xml:17:1-24:12
MERGED from [androidx.swiperefreshlayout:swiperefreshlayout:1.0.0] /Users/admin/.gradle/caches/transforms-3/d2a0ef851359ae355103c8a357e2e22c/transformed/swiperefreshlayout-1.0.0/AndroidManifest.xml:17:1-22:12
MERGED from [com.google.android.gms:play-services-maps:18.0.2] /Users/admin/.gradle/caches/transforms-3/4fe486e3c16899c67b1f49a3e3ae28f6/transformed/jetified-play-services-maps-18.0.2/AndroidManifest.xml:17:1-44:12
MERGED from [com.google.android.gms:play-services-location:20.0.0] /Users/admin/.gradle/caches/transforms-3/9a460770c6cb58caf18b70e6cbf4450a/transformed/jetified-play-services-location-20.0.0/AndroidManifest.xml:2:1-9:12
MERGED from [com.google.android.gms:play-services-base:18.1.0] /Users/admin/.gradle/caches/transforms-3/7bc2107a0f24dde54b783ba4b64ec0fd/transformed/jetified-play-services-base-18.1.0/AndroidManifest.xml:16:1-24:12
MERGED from [com.google.android.gms:play-services-tasks:18.0.2] /Users/admin/.gradle/caches/transforms-3/e56f2621ef626fd464225cee132f3f36/transformed/jetified-play-services-tasks-18.0.2/AndroidManifest.xml:2:1-6:12
MERGED from [com.google.android.gms:play-services-basement:18.1.0] /Users/admin/.gradle/caches/transforms-3/bf9b6fb405d2f7fd8250171739588e78/transformed/jetified-play-services-basement-18.1.0/AndroidManifest.xml:16:1-26:12
MERGED from [androidx.viewpager2:viewpager2:1.0.0] /Users/admin/.gradle/caches/transforms-3/378d88de2fde0e29d92543d12e33b34a/transformed/jetified-viewpager2-1.0.0/AndroidManifest.xml:17:1-24:12
MERGED from [androidx.fragment:fragment:1.3.6] /Users/admin/.gradle/caches/transforms-3/177c698be397eb145127cfb5353a1679/transformed/fragment-1.3.6/AndroidManifest.xml:17:1-24:12
MERGED from [androidx.activity:activity:1.2.4] /Users/admin/.gradle/caches/transforms-3/bd9fd054e490e97f2ce10f2145ad8c4d/transformed/jetified-activity-1.2.4/AndroidManifest.xml:17:1-24:12
MERGED from [androidx.emoji2:emoji2-views-helper:1.0.0] /Users/admin/.gradle/caches/transforms-3/0ea8bc22ad4ebc71e19e62d6deb40a83/transformed/jetified-emoji2-views-helper-1.0.0/AndroidManifest.xml:17:1-24:12
MERGED from [androidx.emoji2:emoji2:1.0.0] /Users/admin/.gradle/caches/transforms-3/223146ef33e3aa619e8b04649706e145/transformed/jetified-emoji2-1.0.0/AndroidManifest.xml:17:1-37:12
MERGED from [androidx.lifecycle:lifecycle-process:2.4.0] /Users/admin/.gradle/caches/transforms-3/d5d05479173d466a6bd0989b3b3e5ef4/transformed/jetified-lifecycle-process-2.4.0/AndroidManifest.xml:17:1-37:12
MERGED from [androidx.startup:startup-runtime:1.0.0] /Users/admin/.gradle/caches/transforms-3/cd3884f773085f1dee1d35041010e253/transformed/jetified-startup-runtime-1.0.0/AndroidManifest.xml:17:1-33:12
MERGED from [androidx.tracing:tracing:1.1.0] /Users/admin/.gradle/caches/transforms-3/816103dcaf20cc3449d44e7aef228ddc/transformed/jetified-tracing-1.1.0/AndroidManifest.xml:17:1-24:12
MERGED from [com.facebook.fresco:middleware:2.6.0] /Users/admin/.gradle/caches/transforms-3/64b55a0ad447c9d7608986823ffb3a12/transformed/jetified-middleware-2.6.0/AndroidManifest.xml:2:1-9:12
MERGED from [com.facebook.fresco:ui-common:2.6.0] /Users/admin/.gradle/caches/transforms-3/c15a7e0a99bb25483d068fddbb8c4f6a/transformed/jetified-ui-common-2.6.0/AndroidManifest.xml:2:1-9:12
MERGED from [com.google.maps.android:android-maps-utils:3.4.0] /Users/admin/.gradle/caches/transforms-3/fa43ca7f0a9d11d60f971bb6091452d2/transformed/jetified-android-maps-utils-3.4.0/AndroidManifest.xml:2:1-15:12
MERGED from [androidx.coordinatorlayout:coordinatorlayout:1.1.0] /Users/admin/.gradle/caches/transforms-3/cde464ada6bf8e4db1ce6a3edaecd38a/transformed/coordinatorlayout-1.1.0/AndroidManifest.xml:17:1-24:12
MERGED from [androidx.sqlite:sqlite:2.2.0] /Users/admin/.gradle/caches/transforms-3/dc58477293179deb391b12c4cba55b48/transformed/sqlite-2.2.0/AndroidManifest.xml:17:1-24:12
MERGED from [androidx.drawerlayout:drawerlayout:1.0.0] /Users/admin/.gradle/caches/transforms-3/dfc6ab3249e5535f070488292c345975/transformed/drawerlayout-1.0.0/AndroidManifest.xml:17:1-22:12
MERGED from [androidx.vectordrawable:vectordrawable-animated:1.1.0] /Users/admin/.gradle/caches/transforms-3/80a0138e8c60a7516785efaf8dfd795a/transformed/vectordrawable-animated-1.1.0/AndroidManifest.xml:17:1-24:12
MERGED from [androidx.vectordrawable:vectordrawable:1.1.0] /Users/admin/.gradle/caches/transforms-3/424f890fe8622dde08059ad036b58b7e/transformed/vectordrawable-1.1.0/AndroidManifest.xml:17:1-24:12
MERGED from [androidx.viewpager:viewpager:1.0.0] /Users/admin/.gradle/caches/transforms-3/f5e70c2f711b5e203c26b6cab0f2f096/transformed/viewpager-1.0.0/AndroidManifest.xml:17:1-22:12
MERGED from [androidx.recyclerview:recyclerview:1.1.0] /Users/admin/.gradle/caches/transforms-3/1d74f8570861ae29793135827590fc1b/transformed/recyclerview-1.1.0/AndroidManifest.xml:17:1-24:12
MERGED from [androidx.customview:customview:1.0.0] /Users/admin/.gradle/caches/transforms-3/156ccde47985acbd22f61b88769a582b/transformed/customview-1.0.0/AndroidManifest.xml:17:1-22:12
MERGED from [androidx.transition:transition:1.2.0] /Users/admin/.gradle/caches/transforms-3/bc4630f7968b1f3eb8f0d04812c2ae29/transformed/transition-1.2.0/AndroidManifest.xml:17:1-24:12
MERGED from [androidx.loader:loader:1.0.0] /Users/admin/.gradle/caches/transforms-3/f2782bc466a14e48ac3fd50422df07eb/transformed/loader-1.0.0/AndroidManifest.xml:17:1-22:12
MERGED from [androidx.core:core:1.7.0] /Users/admin/.gradle/caches/transforms-3/75e4635b66fa4e4e84e71b52579837ce/transformed/core-1.7.0/AndroidManifest.xml:17:1-26:12
MERGED from [androidx.cursoradapter:cursoradapter:1.0.0] /Users/admin/.gradle/caches/transforms-3/da6b1dd448f2c4a1e044c031e9364089/transformed/cursoradapter-1.0.0/AndroidManifest.xml:17:1-22:12
MERGED from [androidx.lifecycle:lifecycle-viewmodel-savedstate:2.3.1] /Users/admin/.gradle/caches/transforms-3/05e32d0972721ec86db9faf3518c82bb/transformed/jetified-lifecycle-viewmodel-savedstate-2.3.1/AndroidManifest.xml:17:1-24:12
MERGED from [androidx.savedstate:savedstate:1.1.0] /Users/admin/.gradle/caches/transforms-3/98e95a351ab9bde9d0757d3ba2da6dd9/transformed/jetified-savedstate-1.1.0/AndroidManifest.xml:17:1-24:12
MERGED from [androidx.lifecycle:lifecycle-viewmodel:2.3.1] /Users/admin/.gradle/caches/transforms-3/8c6c5513f4a20550a4fe8e18d90a0b23/transformed/lifecycle-viewmodel-2.3.1/AndroidManifest.xml:17:1-24:12
MERGED from [androidx.interpolator:interpolator:1.0.0] /Users/admin/.gradle/caches/transforms-3/9eef969e6025718ac1fde2c52b3066d8/transformed/interpolator-1.0.0/AndroidManifest.xml:17:1-22:12
MERGED from [androidx.cardview:cardview:1.0.0] /Users/admin/.gradle/caches/transforms-3/c785f2650a4ab9597610a42a5423b6e7/transformed/cardview-1.0.0/AndroidManifest.xml:17:1-22:12
MERGED from [androidx.versionedparcelable:versionedparcelable:1.1.1] /Users/admin/.gradle/caches/transforms-3/a1eec6f4e1f4253fcf428dd43a9fa3cd/transformed/versionedparcelable-1.1.1/AndroidManifest.xml:17:1-27:12
MERGED from [androidx.lifecycle:lifecycle-livedata:2.1.0] /Users/admin/.gradle/caches/transforms-3/2efc0e3fcc5a7d654b5f7e93b13594df/transformed/lifecycle-livedata-2.1.0/AndroidManifest.xml:17:1-22:12
MERGED from [androidx.lifecycle:lifecycle-livedata-core:2.3.1] /Users/admin/.gradle/caches/transforms-3/6f02cdabe3b0f4b648ca283ad9ff996c/transformed/lifecycle-livedata-core-2.3.1/AndroidManifest.xml:17:1-24:12
MERGED from [androidx.lifecycle:lifecycle-service:2.1.0] /Users/admin/.gradle/caches/transforms-3/7d5deae39a994bbf8419f8d5ee77d017/transformed/jetified-lifecycle-service-2.1.0/AndroidManifest.xml:17:1-22:12
MERGED from [androidx.lifecycle:lifecycle-runtime:2.4.0] /Users/admin/.gradle/caches/transforms-3/cf8c141c143f512e5d69201abc198297/transformed/lifecycle-runtime-2.4.0/AndroidManifest.xml:17:1-24:12
MERGED from [androidx.arch.core:core-runtime:2.1.0] /Users/admin/.gradle/caches/transforms-3/9e963b848f7749309ceb54174b3bfd88/transformed/core-runtime-2.1.0/AndroidManifest.xml:17:1-24:12
MERGED from [com.facebook.fresco:fbcore:2.6.0] /Users/admin/.gradle/caches/transforms-3/6b675b8779f5bce57b5bb10c07a431c5/transformed/jetified-fbcore-2.6.0/AndroidManifest.xml:2:1-9:12
MERGED from [androidx.annotation:annotation-experimental:1.1.0] /Users/admin/.gradle/caches/transforms-3/ea88610a3c8be13450373fa73372379b/transformed/jetified-annotation-experimental-1.1.0/AndroidManifest.xml:17:1-24:12
INJECTED from /Users/admin/Desktop/Sismi/CountryList/GITFOLDER/assignment/android/app/src/debug/AndroidManifest.xml:2:1-13:12
INJECTED from /Users/admin/Desktop/Sismi/CountryList/GITFOLDER/assignment/android/app/src/debug/AndroidManifest.xml:2:1-13:12
INJECTED from /Users/admin/Desktop/Sismi/CountryList/GITFOLDER/assignment/android/app/src/debug/AndroidManifest.xml:2:1-13:12
	package
		INJECTED from /Users/admin/Desktop/Sismi/CountryList/GITFOLDER/assignment/android/app/src/main/AndroidManifest.xml
		ADDED from /Users/admin/Desktop/Sismi/CountryList/GITFOLDER/assignment/android/app/src/main/AndroidManifest.xml:1:1-30:12
		INJECTED from /Users/admin/Desktop/Sismi/CountryList/GITFOLDER/assignment/android/app/src/debug/AndroidManifest.xml
	android:versionName
		INJECTED from /Users/admin/Desktop/Sismi/CountryList/GITFOLDER/assignment/android/app/src/main/AndroidManifest.xml
		ADDED from /Users/admin/Desktop/Sismi/CountryList/GITFOLDER/assignment/android/app/src/main/AndroidManifest.xml:1:1-30:12
		INJECTED from /Users/admin/Desktop/Sismi/CountryList/GITFOLDER/assignment/android/app/src/debug/AndroidManifest.xml
	xmlns:tools
		ADDED from /Users/admin/Desktop/Sismi/CountryList/GITFOLDER/assignment/android/app/src/debug/AndroidManifest.xml:3:5-51
	android:versionCode
		INJECTED from /Users/admin/Desktop/Sismi/CountryList/GITFOLDER/assignment/android/app/src/main/AndroidManifest.xml
		ADDED from /Users/admin/Desktop/Sismi/CountryList/GITFOLDER/assignment/android/app/src/main/AndroidManifest.xml:1:1-30:12
		INJECTED from /Users/admin/Desktop/Sismi/CountryList/GITFOLDER/assignment/android/app/src/debug/AndroidManifest.xml
	xmlns:android
		ADDED from /Users/admin/Desktop/Sismi/CountryList/GITFOLDER/assignment/android/app/src/main/AndroidManifest.xml:1:11-69
uses-permission#android.permission.INTERNET
ADDED from /Users/admin/Desktop/Sismi/CountryList/GITFOLDER/assignment/android/app/src/main/AndroidManifest.xml:3:5-67
MERGED from [com.facebook.flipper:flipper:0.182.0] /Users/admin/.gradle/caches/transforms-3/e13f88164840fe641a466d05cd8edac7/transformed/jetified-flipper-0.182.0/AndroidManifest.xml:15:5-67
MERGED from [com.facebook.flipper:flipper:0.182.0] /Users/admin/.gradle/caches/transforms-3/e13f88164840fe641a466d05cd8edac7/transformed/jetified-flipper-0.182.0/AndroidManifest.xml:15:5-67
MERGED from [com.google.android.gms:play-services-maps:18.0.2] /Users/admin/.gradle/caches/transforms-3/4fe486e3c16899c67b1f49a3e3ae28f6/transformed/jetified-play-services-maps-18.0.2/AndroidManifest.xml:24:5-67
MERGED from [com.google.android.gms:play-services-maps:18.0.2] /Users/admin/.gradle/caches/transforms-3/4fe486e3c16899c67b1f49a3e3ae28f6/transformed/jetified-play-services-maps-18.0.2/AndroidManifest.xml:24:5-67
	android:name
		ADDED from /Users/admin/Desktop/Sismi/CountryList/GITFOLDER/assignment/android/app/src/main/AndroidManifest.xml:3:22-64
application
ADDED from /Users/admin/Desktop/Sismi/CountryList/GITFOLDER/assignment/android/app/src/main/AndroidManifest.xml:5:5-29:19
MERGED from /Users/admin/Desktop/Sismi/CountryList/GITFOLDER/assignment/android/app/src/main/AndroidManifest.xml:5:5-29:19
MERGED from /Users/admin/Desktop/Sismi/CountryList/GITFOLDER/assignment/android/app/src/main/AndroidManifest.xml:5:5-29:19
MERGED from [com.facebook.soloader:soloader:0.10.5] /Users/admin/.gradle/caches/transforms-3/ec3312a013bd7d8a70466a1977a1dba4/transformed/jetified-soloader-0.10.5/AndroidManifest.xml:11:5-15:19
MERGED from [com.facebook.soloader:soloader:0.10.5] /Users/admin/.gradle/caches/transforms-3/ec3312a013bd7d8a70466a1977a1dba4/transformed/jetified-soloader-0.10.5/AndroidManifest.xml:11:5-15:19
MERGED from [com.google.android.material:material:1.1.0] /Users/admin/.gradle/caches/transforms-3/9300c7fc5aff0974f1ee709fb212c45e/transformed/material-1.1.0/AndroidManifest.xml:22:5-20
MERGED from [com.google.android.material:material:1.1.0] /Users/admin/.gradle/caches/transforms-3/9300c7fc5aff0974f1ee709fb212c45e/transformed/material-1.1.0/AndroidManifest.xml:22:5-20
MERGED from [androidx.work:work-runtime:2.7.1] /Users/admin/.gradle/caches/transforms-3/a93c68fb1d2792ca1942259f5092d83b/transformed/work-runtime-2.7.1/AndroidManifest.xml:30:5-143:19
MERGED from [androidx.work:work-runtime:2.7.1] /Users/admin/.gradle/caches/transforms-3/a93c68fb1d2792ca1942259f5092d83b/transformed/work-runtime-2.7.1/AndroidManifest.xml:30:5-143:19
MERGED from [androidx.room:room-runtime:2.2.5] /Users/admin/.gradle/caches/transforms-3/32f4dc14231a603560d048af81f18073/transformed/room-runtime-2.2.5/AndroidManifest.xml:24:5-29:19
MERGED from [androidx.room:room-runtime:2.2.5] /Users/admin/.gradle/caches/transforms-3/32f4dc14231a603560d048af81f18073/transformed/room-runtime-2.2.5/AndroidManifest.xml:24:5-29:19
MERGED from [com.google.android.gms:play-services-maps:18.0.2] /Users/admin/.gradle/caches/transforms-3/4fe486e3c16899c67b1f49a3e3ae28f6/transformed/jetified-play-services-maps-18.0.2/AndroidManifest.xml:36:5-42:19
MERGED from [com.google.android.gms:play-services-maps:18.0.2] /Users/admin/.gradle/caches/transforms-3/4fe486e3c16899c67b1f49a3e3ae28f6/transformed/jetified-play-services-maps-18.0.2/AndroidManifest.xml:36:5-42:19
MERGED from [com.google.android.gms:play-services-location:20.0.0] /Users/admin/.gradle/caches/transforms-3/9a460770c6cb58caf18b70e6cbf4450a/transformed/jetified-play-services-location-20.0.0/AndroidManifest.xml:7:5-20
MERGED from [com.google.android.gms:play-services-location:20.0.0] /Users/admin/.gradle/caches/transforms-3/9a460770c6cb58caf18b70e6cbf4450a/transformed/jetified-play-services-location-20.0.0/AndroidManifest.xml:7:5-20
MERGED from [com.google.android.gms:play-services-base:18.1.0] /Users/admin/.gradle/caches/transforms-3/7bc2107a0f24dde54b783ba4b64ec0fd/transformed/jetified-play-services-base-18.1.0/AndroidManifest.xml:19:5-23:19
MERGED from [com.google.android.gms:play-services-base:18.1.0] /Users/admin/.gradle/caches/transforms-3/7bc2107a0f24dde54b783ba4b64ec0fd/transformed/jetified-play-services-base-18.1.0/AndroidManifest.xml:19:5-23:19
MERGED from [com.google.android.gms:play-services-tasks:18.0.2] /Users/admin/.gradle/caches/transforms-3/e56f2621ef626fd464225cee132f3f36/transformed/jetified-play-services-tasks-18.0.2/AndroidManifest.xml:5:5-20
MERGED from [com.google.android.gms:play-services-tasks:18.0.2] /Users/admin/.gradle/caches/transforms-3/e56f2621ef626fd464225cee132f3f36/transformed/jetified-play-services-tasks-18.0.2/AndroidManifest.xml:5:5-20
MERGED from [com.google.android.gms:play-services-basement:18.1.0] /Users/admin/.gradle/caches/transforms-3/bf9b6fb405d2f7fd8250171739588e78/transformed/jetified-play-services-basement-18.1.0/AndroidManifest.xml:20:5-24:19
MERGED from [com.google.android.gms:play-services-basement:18.1.0] /Users/admin/.gradle/caches/transforms-3/bf9b6fb405d2f7fd8250171739588e78/transformed/jetified-play-services-basement-18.1.0/AndroidManifest.xml:20:5-24:19
MERGED from [androidx.emoji2:emoji2:1.0.0] /Users/admin/.gradle/caches/transforms-3/223146ef33e3aa619e8b04649706e145/transformed/jetified-emoji2-1.0.0/AndroidManifest.xml:25:5-35:19
MERGED from [androidx.emoji2:emoji2:1.0.0] /Users/admin/.gradle/caches/transforms-3/223146ef33e3aa619e8b04649706e145/transformed/jetified-emoji2-1.0.0/AndroidManifest.xml:25:5-35:19
MERGED from [androidx.lifecycle:lifecycle-process:2.4.0] /Users/admin/.gradle/caches/transforms-3/d5d05479173d466a6bd0989b3b3e5ef4/transformed/jetified-lifecycle-process-2.4.0/AndroidManifest.xml:25:5-35:19
MERGED from [androidx.lifecycle:lifecycle-process:2.4.0] /Users/admin/.gradle/caches/transforms-3/d5d05479173d466a6bd0989b3b3e5ef4/transformed/jetified-lifecycle-process-2.4.0/AndroidManifest.xml:25:5-35:19
MERGED from [androidx.startup:startup-runtime:1.0.0] /Users/admin/.gradle/caches/transforms-3/cd3884f773085f1dee1d35041010e253/transformed/jetified-startup-runtime-1.0.0/AndroidManifest.xml:25:5-31:19
MERGED from [androidx.startup:startup-runtime:1.0.0] /Users/admin/.gradle/caches/transforms-3/cd3884f773085f1dee1d35041010e253/transformed/jetified-startup-runtime-1.0.0/AndroidManifest.xml:25:5-31:19
MERGED from [com.google.maps.android:android-maps-utils:3.4.0] /Users/admin/.gradle/caches/transforms-3/fa43ca7f0a9d11d60f971bb6091452d2/transformed/jetified-android-maps-utils-3.4.0/AndroidManifest.xml:9:5-13:19
MERGED from [com.google.maps.android:android-maps-utils:3.4.0] /Users/admin/.gradle/caches/transforms-3/fa43ca7f0a9d11d60f971bb6091452d2/transformed/jetified-android-maps-utils-3.4.0/AndroidManifest.xml:9:5-13:19
MERGED from [androidx.core:core:1.7.0] /Users/admin/.gradle/caches/transforms-3/75e4635b66fa4e4e84e71b52579837ce/transformed/core-1.7.0/AndroidManifest.xml:24:5-89
MERGED from [androidx.core:core:1.7.0] /Users/admin/.gradle/caches/transforms-3/75e4635b66fa4e4e84e71b52579837ce/transformed/core-1.7.0/AndroidManifest.xml:24:5-89
MERGED from [androidx.versionedparcelable:versionedparcelable:1.1.1] /Users/admin/.gradle/caches/transforms-3/a1eec6f4e1f4253fcf428dd43a9fa3cd/transformed/versionedparcelable-1.1.1/AndroidManifest.xml:24:5-25:19
MERGED from [androidx.versionedparcelable:versionedparcelable:1.1.1] /Users/admin/.gradle/caches/transforms-3/a1eec6f4e1f4253fcf428dd43a9fa3cd/transformed/versionedparcelable-1.1.1/AndroidManifest.xml:24:5-25:19
	android:appComponentFactory
		ADDED from [androidx.core:core:1.7.0] /Users/admin/.gradle/caches/transforms-3/75e4635b66fa4e4e84e71b52579837ce/transformed/core-1.7.0/AndroidManifest.xml:24:18-86
	android:label
		ADDED from /Users/admin/Desktop/Sismi/CountryList/GITFOLDER/assignment/android/app/src/main/AndroidManifest.xml:7:7-39
		ADDED from /Users/admin/Desktop/Sismi/CountryList/GITFOLDER/assignment/android/app/src/main/AndroidManifest.xml:7:7-39
	tools:ignore
		ADDED from /Users/admin/Desktop/Sismi/CountryList/GITFOLDER/assignment/android/app/src/debug/AndroidManifest.xml:10:9-48
	android:roundIcon
		ADDED from /Users/admin/Desktop/Sismi/CountryList/GITFOLDER/assignment/android/app/src/main/AndroidManifest.xml:9:7-52
		ADDED from /Users/admin/Desktop/Sismi/CountryList/GITFOLDER/assignment/android/app/src/main/AndroidManifest.xml:9:7-52
	tools:targetApi
		ADDED from /Users/admin/Desktop/Sismi/CountryList/GITFOLDER/assignment/android/app/src/debug/AndroidManifest.xml:9:9-29
	android:icon
		ADDED from /Users/admin/Desktop/Sismi/CountryList/GITFOLDER/assignment/android/app/src/main/AndroidManifest.xml:8:7-41
		ADDED from /Users/admin/Desktop/Sismi/CountryList/GITFOLDER/assignment/android/app/src/main/AndroidManifest.xml:8:7-41
	android:allowBackup
		ADDED from /Users/admin/Desktop/Sismi/CountryList/GITFOLDER/assignment/android/app/src/main/AndroidManifest.xml:10:7-34
		ADDED from /Users/admin/Desktop/Sismi/CountryList/GITFOLDER/assignment/android/app/src/main/AndroidManifest.xml:10:7-34
	android:theme
		ADDED from /Users/admin/Desktop/Sismi/CountryList/GITFOLDER/assignment/android/app/src/main/AndroidManifest.xml:11:7-38
		ADDED from /Users/admin/Desktop/Sismi/CountryList/GITFOLDER/assignment/android/app/src/main/AndroidManifest.xml:11:7-38
	android:usesCleartextTraffic
		ADDED from /Users/admin/Desktop/Sismi/CountryList/GITFOLDER/assignment/android/app/src/debug/AndroidManifest.xml:8:9-44
	android:name
		ADDED from /Users/admin/Desktop/Sismi/CountryList/GITFOLDER/assignment/android/app/src/main/AndroidManifest.xml:6:7-38
		ADDED from /Users/admin/Desktop/Sismi/CountryList/GITFOLDER/assignment/android/app/src/main/AndroidManifest.xml:6:7-38
activity#com.countrylist.MainActivity
ADDED from /Users/admin/Desktop/Sismi/CountryList/GITFOLDER/assignment/android/app/src/main/AndroidManifest.xml:12:7-24:18
	android:label
		ADDED from /Users/admin/Desktop/Sismi/CountryList/GITFOLDER/assignment/android/app/src/main/AndroidManifest.xml:14:9-41
	android:launchMode
		ADDED from /Users/admin/Desktop/Sismi/CountryList/GITFOLDER/assignment/android/app/src/main/AndroidManifest.xml:16:9-40
	android:windowSoftInputMode
		ADDED from /Users/admin/Desktop/Sismi/CountryList/GITFOLDER/assignment/android/app/src/main/AndroidManifest.xml:17:9-51
	android:exported
		ADDED from /Users/admin/Desktop/Sismi/CountryList/GITFOLDER/assignment/android/app/src/main/AndroidManifest.xml:18:9-32
	android:configChanges
		ADDED from /Users/admin/Desktop/Sismi/CountryList/GITFOLDER/assignment/android/app/src/main/AndroidManifest.xml:15:9-118
	android:name
		ADDED from /Users/admin/Desktop/Sismi/CountryList/GITFOLDER/assignment/android/app/src/main/AndroidManifest.xml:13:9-37
intent-filter#action:name:android.intent.action.MAIN+category:name:android.intent.category.LAUNCHER
ADDED from /Users/admin/Desktop/Sismi/CountryList/GITFOLDER/assignment/android/app/src/main/AndroidManifest.xml:20:9-23:25
action#android.intent.action.MAIN
ADDED from /Users/admin/Desktop/Sismi/CountryList/GITFOLDER/assignment/android/app/src/main/AndroidManifest.xml:21:13-65
	android:name
		ADDED from /Users/admin/Desktop/Sismi/CountryList/GITFOLDER/assignment/android/app/src/main/AndroidManifest.xml:21:21-62
category#android.intent.category.LAUNCHER
ADDED from /Users/admin/Desktop/Sismi/CountryList/GITFOLDER/assignment/android/app/src/main/AndroidManifest.xml:22:13-73
	android:name
		ADDED from /Users/admin/Desktop/Sismi/CountryList/GITFOLDER/assignment/android/app/src/main/AndroidManifest.xml:22:23-70
meta-data#com.google.android.geo.API_KEY
ADDED from /Users/admin/Desktop/Sismi/CountryList/GITFOLDER/assignment/android/app/src/main/AndroidManifest.xml:26:15-28:58
	android:value
		ADDED from /Users/admin/Desktop/Sismi/CountryList/GITFOLDER/assignment/android/app/src/main/AndroidManifest.xml:28:1-56
	android:name
		ADDED from /Users/admin/Desktop/Sismi/CountryList/GITFOLDER/assignment/android/app/src/main/AndroidManifest.xml:27:1-46
uses-sdk
INJECTED from /Users/admin/Desktop/Sismi/CountryList/GITFOLDER/assignment/android/app/src/main/AndroidManifest.xml reason: use-sdk injection requested
INJECTED from /Users/admin/Desktop/Sismi/CountryList/GITFOLDER/assignment/android/app/src/main/AndroidManifest.xml
INJECTED from /Users/admin/Desktop/Sismi/CountryList/GITFOLDER/assignment/android/app/src/main/AndroidManifest.xml
MERGED from [com.facebook.flipper:flipper-network-plugin:0.182.0] /Users/admin/.gradle/caches/transforms-3/e47626a30834dcd66576d826bae55315/transformed/jetified-flipper-network-plugin-0.182.0/AndroidManifest.xml:11:5-13:41
MERGED from [com.facebook.flipper:flipper-network-plugin:0.182.0] /Users/admin/.gradle/caches/transforms-3/e47626a30834dcd66576d826bae55315/transformed/jetified-flipper-network-plugin-0.182.0/AndroidManifest.xml:11:5-13:41
MERGED from [com.facebook.flipper:flipper-fresco-plugin:0.182.0] /Users/admin/.gradle/caches/transforms-3/927874504f02e490d8ef5fc541319ddd/transformed/jetified-flipper-fresco-plugin-0.182.0/AndroidManifest.xml:11:5-13:41
MERGED from [com.facebook.flipper:flipper-fresco-plugin:0.182.0] /Users/admin/.gradle/caches/transforms-3/927874504f02e490d8ef5fc541319ddd/transformed/jetified-flipper-fresco-plugin-0.182.0/AndroidManifest.xml:11:5-13:41
MERGED from [com.facebook.flipper:flipper:0.182.0] /Users/admin/.gradle/caches/transforms-3/e13f88164840fe641a466d05cd8edac7/transformed/jetified-flipper-0.182.0/AndroidManifest.xml:11:5-13:41
MERGED from [com.facebook.flipper:flipper:0.182.0] /Users/admin/.gradle/caches/transforms-3/e13f88164840fe641a466d05cd8edac7/transformed/jetified-flipper-0.182.0/AndroidManifest.xml:11:5-13:41
MERGED from [:react-native-maps] /Users/admin/Desktop/Sismi/CountryList/GITFOLDER/assignment/node_modules/react-native-maps/android/build/intermediates/merged_manifest/debug/AndroidManifest.xml:5:5-44
MERGED from [:react-native-maps] /Users/admin/Desktop/Sismi/CountryList/GITFOLDER/assignment/node_modules/react-native-maps/android/build/intermediates/merged_manifest/debug/AndroidManifest.xml:5:5-44
MERGED from [:react-native-safe-area-context] /Users/admin/Desktop/Sismi/CountryList/GITFOLDER/assignment/node_modules/react-native-safe-area-context/android/build/intermediates/merged_manifest/debug/AndroidManifest.xml:5:5-44
MERGED from [:react-native-safe-area-context] /Users/admin/Desktop/Sismi/CountryList/GITFOLDER/assignment/node_modules/react-native-safe-area-context/android/build/intermediates/merged_manifest/debug/AndroidManifest.xml:5:5-44
MERGED from [:react-native-screens] /Users/admin/Desktop/Sismi/CountryList/GITFOLDER/assignment/node_modules/react-native-screens/android/build/intermediates/merged_manifest/debug/AndroidManifest.xml:5:5-44
MERGED from [:react-native-screens] /Users/admin/Desktop/Sismi/CountryList/GITFOLDER/assignment/node_modules/react-native-screens/android/build/intermediates/merged_manifest/debug/AndroidManifest.xml:5:5-44
MERGED from [:react-native-svg] /Users/admin/Desktop/Sismi/CountryList/GITFOLDER/assignment/node_modules/react-native-svg/android/build/intermediates/merged_manifest/debug/AndroidManifest.xml:5:5-44
MERGED from [:react-native-svg] /Users/admin/Desktop/Sismi/CountryList/GITFOLDER/assignment/node_modules/react-native-svg/android/build/intermediates/merged_manifest/debug/AndroidManifest.xml:5:5-44
MERGED from [:react-native-vector-icons] /Users/admin/Desktop/Sismi/CountryList/GITFOLDER/assignment/node_modules/react-native-vector-icons/android/build/intermediates/merged_manifest/debug/AndroidManifest.xml:5:5-44
MERGED from [:react-native-vector-icons] /Users/admin/Desktop/Sismi/CountryList/GITFOLDER/assignment/node_modules/react-native-vector-icons/android/build/intermediates/merged_manifest/debug/AndroidManifest.xml:5:5-44
MERGED from [com.facebook.react:react-android:0.72.3] /Users/admin/.gradle/caches/transforms-3/c89beba49bda3c7ff0db4787685e5ed7/transformed/jetified-react-android-0.72.3-debug/AndroidManifest.xml:5:5-44
MERGED from [com.facebook.react:react-android:0.72.3] /Users/admin/.gradle/caches/transforms-3/c89beba49bda3c7ff0db4787685e5ed7/transformed/jetified-react-android-0.72.3-debug/AndroidManifest.xml:5:5-44
MERGED from [com.facebook.react:hermes-android:0.72.3] /Users/admin/.gradle/caches/transforms-3/430a607cf6d546758ce98bd168677a7b/transformed/jetified-hermes-android-0.72.3-debug/AndroidManifest.xml:5:5-44
MERGED from [com.facebook.react:hermes-android:0.72.3] /Users/admin/.gradle/caches/transforms-3/430a607cf6d546758ce98bd168677a7b/transformed/jetified-hermes-android-0.72.3-debug/AndroidManifest.xml:5:5-44
MERGED from [com.facebook.fresco:imagepipeline-okhttp3:2.5.0] /Users/admin/.gradle/caches/transforms-3/463b085172aadec89519c358dac4e9e6/transformed/jetified-imagepipeline-okhttp3-2.5.0/AndroidManifest.xml:5:5-7:41
MERGED from [com.facebook.fresco:imagepipeline-okhttp3:2.5.0] /Users/admin/.gradle/caches/transforms-3/463b085172aadec89519c358dac4e9e6/transformed/jetified-imagepipeline-okhttp3-2.5.0/AndroidManifest.xml:5:5-7:41
MERGED from [androidx.core:core-ktx:1.5.0] /Users/admin/.gradle/caches/transforms-3/c87b97424659a3cc7da5af62d81a0b78/transformed/jetified-core-ktx-1.5.0/AndroidManifest.xml:5:5-7:41
MERGED from [androidx.core:core-ktx:1.5.0] /Users/admin/.gradle/caches/transforms-3/c87b97424659a3cc7da5af62d81a0b78/transformed/jetified-core-ktx-1.5.0/AndroidManifest.xml:5:5-7:41
MERGED from [com.android.ndk.thirdparty:openssl:1.1.1l-beta-1] /Users/admin/.gradle/caches/transforms-3/9aee53ed1b97b29f8fa14a865487ca10/transformed/jetified-openssl-1.1.1l-beta-1/AndroidManifest.xml:2:2-70
MERGED from [com.android.ndk.thirdparty:openssl:1.1.1l-beta-1] /Users/admin/.gradle/caches/transforms-3/9aee53ed1b97b29f8fa14a865487ca10/transformed/jetified-openssl-1.1.1l-beta-1/AndroidManifest.xml:2:2-70
MERGED from [com.facebook.fbjni:fbjni:0.3.0] /Users/admin/.gradle/caches/transforms-3/34c2120d0d3cd8dc97826fc02c9e8fc4/transformed/jetified-fbjni-0.3.0/AndroidManifest.xml:5:5-7:41
MERGED from [com.facebook.fbjni:fbjni:0.3.0] /Users/admin/.gradle/caches/transforms-3/34c2120d0d3cd8dc97826fc02c9e8fc4/transformed/jetified-fbjni-0.3.0/AndroidManifest.xml:5:5-7:41
MERGED from [com.facebook.fresco:flipper:2.6.0] /Users/admin/.gradle/caches/transforms-3/cc5767ebbd99d907420b3ba47b91c250/transformed/jetified-flipper-2.6.0/AndroidManifest.xml:5:5-7:41
MERGED from [com.facebook.fresco:flipper:2.6.0] /Users/admin/.gradle/caches/transforms-3/cc5767ebbd99d907420b3ba47b91c250/transformed/jetified-flipper-2.6.0/AndroidManifest.xml:5:5-7:41
MERGED from [com.facebook.fresco:stetho:2.6.0] /Users/admin/.gradle/caches/transforms-3/0e5cd9152c318e4343acbf9c30cc46b4/transformed/jetified-stetho-2.6.0/AndroidManifest.xml:5:5-7:41
MERGED from [com.facebook.fresco:stetho:2.6.0] /Users/admin/.gradle/caches/transforms-3/0e5cd9152c318e4343acbf9c30cc46b4/transformed/jetified-stetho-2.6.0/AndroidManifest.xml:5:5-7:41
MERGED from [com.facebook.fresco:fresco:2.6.0] /Users/admin/.gradle/caches/transforms-3/ff33f53f7898d508ffd12de8c953352e/transformed/jetified-fresco-2.6.0/AndroidManifest.xml:5:5-7:41
MERGED from [com.facebook.fresco:fresco:2.6.0] /Users/admin/.gradle/caches/transforms-3/ff33f53f7898d508ffd12de8c953352e/transformed/jetified-fresco-2.6.0/AndroidManifest.xml:5:5-7:41
MERGED from [com.facebook.fresco:soloader:2.6.0] /Users/admin/.gradle/caches/transforms-3/b6aa16e9dd6ef2bbcc667631ac72f81b/transformed/jetified-soloader-2.6.0/AndroidManifest.xml:5:5-7:41
MERGED from [com.facebook.fresco:soloader:2.6.0] /Users/admin/.gradle/caches/transforms-3/b6aa16e9dd6ef2bbcc667631ac72f81b/transformed/jetified-soloader-2.6.0/AndroidManifest.xml:5:5-7:41
MERGED from [com.facebook.fresco:drawee:2.6.0] /Users/admin/.gradle/caches/transforms-3/8ebb0988b078846cf36008451821bdf1/transformed/jetified-drawee-2.6.0/AndroidManifest.xml:5:5-7:41
MERGED from [com.facebook.fresco:drawee:2.6.0] /Users/admin/.gradle/caches/transforms-3/8ebb0988b078846cf36008451821bdf1/transformed/jetified-drawee-2.6.0/AndroidManifest.xml:5:5-7:41
MERGED from [com.facebook.fresco:nativeimagefilters:2.6.0] /Users/admin/.gradle/caches/transforms-3/db292e509702f91f8389bb56cd1190ea/transformed/jetified-nativeimagefilters-2.6.0/AndroidManifest.xml:5:5-7:41
MERGED from [com.facebook.fresco:nativeimagefilters:2.6.0] /Users/admin/.gradle/caches/transforms-3/db292e509702f91f8389bb56cd1190ea/transformed/jetified-nativeimagefilters-2.6.0/AndroidManifest.xml:5:5-7:41
MERGED from [com.facebook.fresco:memory-type-native:2.6.0] /Users/admin/.gradle/caches/transforms-3/fbfb3116d2cd0d931ae8fc882aeced9a/transformed/jetified-memory-type-native-2.6.0/AndroidManifest.xml:5:5-7:41
MERGED from [com.facebook.fresco:memory-type-native:2.6.0] /Users/admin/.gradle/caches/transforms-3/fbfb3116d2cd0d931ae8fc882aeced9a/transformed/jetified-memory-type-native-2.6.0/AndroidManifest.xml:5:5-7:41
MERGED from [com.facebook.fresco:memory-type-java:2.6.0] /Users/admin/.gradle/caches/transforms-3/f146b2df3fa9336e720678320cc284f9/transformed/jetified-memory-type-java-2.6.0/AndroidManifest.xml:5:5-7:41
MERGED from [com.facebook.fresco:memory-type-java:2.6.0] /Users/admin/.gradle/caches/transforms-3/f146b2df3fa9336e720678320cc284f9/transformed/jetified-memory-type-java-2.6.0/AndroidManifest.xml:5:5-7:41
MERGED from [com.facebook.fresco:imagepipeline-native:2.6.0] /Users/admin/.gradle/caches/transforms-3/7a020d8ab0e039c51070684c633d45c0/transformed/jetified-imagepipeline-native-2.6.0/AndroidManifest.xml:5:5-7:41
MERGED from [com.facebook.fresco:imagepipeline-native:2.6.0] /Users/admin/.gradle/caches/transforms-3/7a020d8ab0e039c51070684c633d45c0/transformed/jetified-imagepipeline-native-2.6.0/AndroidManifest.xml:5:5-7:41
MERGED from [com.facebook.soloader:soloader:0.10.5] /Users/admin/.gradle/caches/transforms-3/ec3312a013bd7d8a70466a1977a1dba4/transformed/jetified-soloader-0.10.5/AndroidManifest.xml:7:5-9:41
MERGED from [com.facebook.soloader:soloader:0.10.5] /Users/admin/.gradle/caches/transforms-3/ec3312a013bd7d8a70466a1977a1dba4/transformed/jetified-soloader-0.10.5/AndroidManifest.xml:7:5-9:41
MERGED from [com.facebook.fresco:memory-type-ashmem:2.6.0] /Users/admin/.gradle/caches/transforms-3/7a33bf69dcea657d1e4bb1bda26d0a68/transformed/jetified-memory-type-ashmem-2.6.0/AndroidManifest.xml:5:5-7:41
MERGED from [com.facebook.fresco:memory-type-ashmem:2.6.0] /Users/admin/.gradle/caches/transforms-3/7a33bf69dcea657d1e4bb1bda26d0a68/transformed/jetified-memory-type-ashmem-2.6.0/AndroidManifest.xml:5:5-7:41
MERGED from [com.facebook.fresco:imagepipeline:2.6.0] /Users/admin/.gradle/caches/transforms-3/988367ce945150ad955bc42f33122470/transformed/jetified-imagepipeline-2.6.0/AndroidManifest.xml:5:5-7:41
MERGED from [com.facebook.fresco:imagepipeline:2.6.0] /Users/admin/.gradle/caches/transforms-3/988367ce945150ad955bc42f33122470/transformed/jetified-imagepipeline-2.6.0/AndroidManifest.xml:5:5-7:41
MERGED from [com.facebook.fresco:nativeimagetranscoder:2.6.0] /Users/admin/.gradle/caches/transforms-3/fd58a95d6d667387129ce8a3f54b74ad/transformed/jetified-nativeimagetranscoder-2.6.0/AndroidManifest.xml:5:5-7:41
MERGED from [com.facebook.fresco:nativeimagetranscoder:2.6.0] /Users/admin/.gradle/caches/transforms-3/fd58a95d6d667387129ce8a3f54b74ad/transformed/jetified-nativeimagetranscoder-2.6.0/AndroidManifest.xml:5:5-7:41
MERGED from [com.facebook.fresco:imagepipeline-base:2.6.0] /Users/admin/.gradle/caches/transforms-3/e7a05d09ffaa90425e2121f36a5185b6/transformed/jetified-imagepipeline-base-2.6.0/AndroidManifest.xml:5:5-7:41
MERGED from [com.facebook.fresco:imagepipeline-base:2.6.0] /Users/admin/.gradle/caches/transforms-3/e7a05d09ffaa90425e2121f36a5185b6/transformed/jetified-imagepipeline-base-2.6.0/AndroidManifest.xml:5:5-7:41
MERGED from [com.google.android.material:material:1.1.0] /Users/admin/.gradle/caches/transforms-3/9300c7fc5aff0974f1ee709fb212c45e/transformed/material-1.1.0/AndroidManifest.xml:20:5-44
MERGED from [com.google.android.material:material:1.1.0] /Users/admin/.gradle/caches/transforms-3/9300c7fc5aff0974f1ee709fb212c45e/transformed/material-1.1.0/AndroidManifest.xml:20:5-44
MERGED from [androidx.appcompat:appcompat:1.4.1] /Users/admin/.gradle/caches/transforms-3/b14585e0ae3314e7a64bac79062dab1c/transformed/appcompat-1.4.1/AndroidManifest.xml:20:5-22:41
MERGED from [androidx.appcompat:appcompat:1.4.1] /Users/admin/.gradle/caches/transforms-3/b14585e0ae3314e7a64bac79062dab1c/transformed/appcompat-1.4.1/AndroidManifest.xml:20:5-22:41
MERGED from [androidx.work:work-runtime:2.7.1] /Users/admin/.gradle/caches/transforms-3/a93c68fb1d2792ca1942259f5092d83b/transformed/work-runtime-2.7.1/AndroidManifest.xml:21:5-23:41
MERGED from [androidx.work:work-runtime:2.7.1] /Users/admin/.gradle/caches/transforms-3/a93c68fb1d2792ca1942259f5092d83b/transformed/work-runtime-2.7.1/AndroidManifest.xml:21:5-23:41
MERGED from [androidx.room:room-runtime:2.2.5] /Users/admin/.gradle/caches/transforms-3/32f4dc14231a603560d048af81f18073/transformed/room-runtime-2.2.5/AndroidManifest.xml:20:5-22:41
MERGED from [androidx.room:room-runtime:2.2.5] /Users/admin/.gradle/caches/transforms-3/32f4dc14231a603560d048af81f18073/transformed/room-runtime-2.2.5/AndroidManifest.xml:20:5-22:41
MERGED from [androidx.sqlite:sqlite-framework:2.2.0] /Users/admin/.gradle/caches/transforms-3/aed854fb12aa7a4f325a5318b63d5aa8/transformed/sqlite-framework-2.2.0/AndroidManifest.xml:20:5-22:41
MERGED from [androidx.sqlite:sqlite-framework:2.2.0] /Users/admin/.gradle/caches/transforms-3/aed854fb12aa7a4f325a5318b63d5aa8/transformed/sqlite-framework-2.2.0/AndroidManifest.xml:20:5-22:41
MERGED from [androidx.appcompat:appcompat-resources:1.4.1] /Users/admin/.gradle/caches/transforms-3/30de096d5ba1553f19f74e52c1ed5c94/transformed/jetified-appcompat-resources-1.4.1/AndroidManifest.xml:20:5-22:41
MERGED from [androidx.appcompat:appcompat-resources:1.4.1] /Users/admin/.gradle/caches/transforms-3/30de096d5ba1553f19f74e52c1ed5c94/transformed/jetified-appcompat-resources-1.4.1/AndroidManifest.xml:20:5-22:41
MERGED from [androidx.autofill:autofill:1.1.0] /Users/admin/.gradle/caches/transforms-3/b2c399022120a5a16a836a433ff38c79/transformed/jetified-autofill-1.1.0/AndroidManifest.xml:20:5-22:41
MERGED from [androidx.autofill:autofill:1.1.0] /Users/admin/.gradle/caches/transforms-3/b2c399022120a5a16a836a433ff38c79/transformed/jetified-autofill-1.1.0/AndroidManifest.xml:20:5-22:41
MERGED from [androidx.swiperefreshlayout:swiperefreshlayout:1.0.0] /Users/admin/.gradle/caches/transforms-3/d2a0ef851359ae355103c8a357e2e22c/transformed/swiperefreshlayout-1.0.0/AndroidManifest.xml:20:5-44
MERGED from [androidx.swiperefreshlayout:swiperefreshlayout:1.0.0] /Users/admin/.gradle/caches/transforms-3/d2a0ef851359ae355103c8a357e2e22c/transformed/swiperefreshlayout-1.0.0/AndroidManifest.xml:20:5-44
MERGED from [com.google.android.gms:play-services-maps:18.0.2] /Users/admin/.gradle/caches/transforms-3/4fe486e3c16899c67b1f49a3e3ae28f6/transformed/jetified-play-services-maps-18.0.2/AndroidManifest.xml:20:5-44
MERGED from [com.google.android.gms:play-services-maps:18.0.2] /Users/admin/.gradle/caches/transforms-3/4fe486e3c16899c67b1f49a3e3ae28f6/transformed/jetified-play-services-maps-18.0.2/AndroidManifest.xml:20:5-44
MERGED from [com.google.android.gms:play-services-location:20.0.0] /Users/admin/.gradle/caches/transforms-3/9a460770c6cb58caf18b70e6cbf4450a/transformed/jetified-play-services-location-20.0.0/AndroidManifest.xml:5:5-44
MERGED from [com.google.android.gms:play-services-location:20.0.0] /Users/admin/.gradle/caches/transforms-3/9a460770c6cb58caf18b70e6cbf4450a/transformed/jetified-play-services-location-20.0.0/AndroidManifest.xml:5:5-44
MERGED from [com.google.android.gms:play-services-base:18.1.0] /Users/admin/.gradle/caches/transforms-3/7bc2107a0f24dde54b783ba4b64ec0fd/transformed/jetified-play-services-base-18.1.0/AndroidManifest.xml:18:5-43
MERGED from [com.google.android.gms:play-services-base:18.1.0] /Users/admin/.gradle/caches/transforms-3/7bc2107a0f24dde54b783ba4b64ec0fd/transformed/jetified-play-services-base-18.1.0/AndroidManifest.xml:18:5-43
MERGED from [com.google.android.gms:play-services-tasks:18.0.2] /Users/admin/.gradle/caches/transforms-3/e56f2621ef626fd464225cee132f3f36/transformed/jetified-play-services-tasks-18.0.2/AndroidManifest.xml:4:5-43
MERGED from [com.google.android.gms:play-services-tasks:18.0.2] /Users/admin/.gradle/caches/transforms-3/e56f2621ef626fd464225cee132f3f36/transformed/jetified-play-services-tasks-18.0.2/AndroidManifest.xml:4:5-43
MERGED from [com.google.android.gms:play-services-basement:18.1.0] /Users/admin/.gradle/caches/transforms-3/bf9b6fb405d2f7fd8250171739588e78/transformed/jetified-play-services-basement-18.1.0/AndroidManifest.xml:18:5-43
MERGED from [com.google.android.gms:play-services-basement:18.1.0] /Users/admin/.gradle/caches/transforms-3/bf9b6fb405d2f7fd8250171739588e78/transformed/jetified-play-services-basement-18.1.0/AndroidManifest.xml:18:5-43
MERGED from [androidx.viewpager2:viewpager2:1.0.0] /Users/admin/.gradle/caches/transforms-3/378d88de2fde0e29d92543d12e33b34a/transformed/jetified-viewpager2-1.0.0/AndroidManifest.xml:20:5-22:41
MERGED from [androidx.viewpager2:viewpager2:1.0.0] /Users/admin/.gradle/caches/transforms-3/378d88de2fde0e29d92543d12e33b34a/transformed/jetified-viewpager2-1.0.0/AndroidManifest.xml:20:5-22:41
MERGED from [androidx.fragment:fragment:1.3.6] /Users/admin/.gradle/caches/transforms-3/177c698be397eb145127cfb5353a1679/transformed/fragment-1.3.6/AndroidManifest.xml:20:5-22:41
MERGED from [androidx.fragment:fragment:1.3.6] /Users/admin/.gradle/caches/transforms-3/177c698be397eb145127cfb5353a1679/transformed/fragment-1.3.6/AndroidManifest.xml:20:5-22:41
MERGED from [androidx.activity:activity:1.2.4] /Users/admin/.gradle/caches/transforms-3/bd9fd054e490e97f2ce10f2145ad8c4d/transformed/jetified-activity-1.2.4/AndroidManifest.xml:20:5-22:41
MERGED from [androidx.activity:activity:1.2.4] /Users/admin/.gradle/caches/transforms-3/bd9fd054e490e97f2ce10f2145ad8c4d/transformed/jetified-activity-1.2.4/AndroidManifest.xml:20:5-22:41
MERGED from [androidx.emoji2:emoji2-views-helper:1.0.0] /Users/admin/.gradle/caches/transforms-3/0ea8bc22ad4ebc71e19e62d6deb40a83/transformed/jetified-emoji2-views-helper-1.0.0/AndroidManifest.xml:20:5-22:41
MERGED from [androidx.emoji2:emoji2-views-helper:1.0.0] /Users/admin/.gradle/caches/transforms-3/0ea8bc22ad4ebc71e19e62d6deb40a83/transformed/jetified-emoji2-views-helper-1.0.0/AndroidManifest.xml:20:5-22:41
MERGED from [androidx.emoji2:emoji2:1.0.0] /Users/admin/.gradle/caches/transforms-3/223146ef33e3aa619e8b04649706e145/transformed/jetified-emoji2-1.0.0/AndroidManifest.xml:21:5-23:41
MERGED from [androidx.emoji2:emoji2:1.0.0] /Users/admin/.gradle/caches/transforms-3/223146ef33e3aa619e8b04649706e145/transformed/jetified-emoji2-1.0.0/AndroidManifest.xml:21:5-23:41
MERGED from [androidx.lifecycle:lifecycle-process:2.4.0] /Users/admin/.gradle/caches/transforms-3/d5d05479173d466a6bd0989b3b3e5ef4/transformed/jetified-lifecycle-process-2.4.0/AndroidManifest.xml:21:5-23:41
MERGED from [androidx.lifecycle:lifecycle-process:2.4.0] /Users/admin/.gradle/caches/transforms-3/d5d05479173d466a6bd0989b3b3e5ef4/transformed/jetified-lifecycle-process-2.4.0/AndroidManifest.xml:21:5-23:41
MERGED from [androidx.startup:startup-runtime:1.0.0] /Users/admin/.gradle/caches/transforms-3/cd3884f773085f1dee1d35041010e253/transformed/jetified-startup-runtime-1.0.0/AndroidManifest.xml:21:5-23:41
MERGED from [androidx.startup:startup-runtime:1.0.0] /Users/admin/.gradle/caches/transforms-3/cd3884f773085f1dee1d35041010e253/transformed/jetified-startup-runtime-1.0.0/AndroidManifest.xml:21:5-23:41
MERGED from [androidx.tracing:tracing:1.1.0] /Users/admin/.gradle/caches/transforms-3/816103dcaf20cc3449d44e7aef228ddc/transformed/jetified-tracing-1.1.0/AndroidManifest.xml:20:5-22:41
MERGED from [androidx.tracing:tracing:1.1.0] /Users/admin/.gradle/caches/transforms-3/816103dcaf20cc3449d44e7aef228ddc/transformed/jetified-tracing-1.1.0/AndroidManifest.xml:20:5-22:41
MERGED from [com.facebook.fresco:middleware:2.6.0] /Users/admin/.gradle/caches/transforms-3/64b55a0ad447c9d7608986823ffb3a12/transformed/jetified-middleware-2.6.0/AndroidManifest.xml:5:5-7:41
MERGED from [com.facebook.fresco:middleware:2.6.0] /Users/admin/.gradle/caches/transforms-3/64b55a0ad447c9d7608986823ffb3a12/transformed/jetified-middleware-2.6.0/AndroidManifest.xml:5:5-7:41
MERGED from [com.facebook.fresco:ui-common:2.6.0] /Users/admin/.gradle/caches/transforms-3/c15a7e0a99bb25483d068fddbb8c4f6a/transformed/jetified-ui-common-2.6.0/AndroidManifest.xml:5:5-7:41
MERGED from [com.facebook.fresco:ui-common:2.6.0] /Users/admin/.gradle/caches/transforms-3/c15a7e0a99bb25483d068fddbb8c4f6a/transformed/jetified-ui-common-2.6.0/AndroidManifest.xml:5:5-7:41
MERGED from [com.google.maps.android:android-maps-utils:3.4.0] /Users/admin/.gradle/caches/transforms-3/fa43ca7f0a9d11d60f971bb6091452d2/transformed/jetified-android-maps-utils-3.4.0/AndroidManifest.xml:5:5-7:41
MERGED from [com.google.maps.android:android-maps-utils:3.4.0] /Users/admin/.gradle/caches/transforms-3/fa43ca7f0a9d11d60f971bb6091452d2/transformed/jetified-android-maps-utils-3.4.0/AndroidManifest.xml:5:5-7:41
MERGED from [androidx.coordinatorlayout:coordinatorlayout:1.1.0] /Users/admin/.gradle/caches/transforms-3/cde464ada6bf8e4db1ce6a3edaecd38a/transformed/coordinatorlayout-1.1.0/AndroidManifest.xml:20:5-22:41
MERGED from [androidx.coordinatorlayout:coordinatorlayout:1.1.0] /Users/admin/.gradle/caches/transforms-3/cde464ada6bf8e4db1ce6a3edaecd38a/transformed/coordinatorlayout-1.1.0/AndroidManifest.xml:20:5-22:41
MERGED from [androidx.sqlite:sqlite:2.2.0] /Users/admin/.gradle/caches/transforms-3/dc58477293179deb391b12c4cba55b48/transformed/sqlite-2.2.0/AndroidManifest.xml:20:5-22:41
MERGED from [androidx.sqlite:sqlite:2.2.0] /Users/admin/.gradle/caches/transforms-3/dc58477293179deb391b12c4cba55b48/transformed/sqlite-2.2.0/AndroidManifest.xml:20:5-22:41
MERGED from [androidx.drawerlayout:drawerlayout:1.0.0] /Users/admin/.gradle/caches/transforms-3/dfc6ab3249e5535f070488292c345975/transformed/drawerlayout-1.0.0/AndroidManifest.xml:20:5-44
MERGED from [androidx.drawerlayout:drawerlayout:1.0.0] /Users/admin/.gradle/caches/transforms-3/dfc6ab3249e5535f070488292c345975/transformed/drawerlayout-1.0.0/AndroidManifest.xml:20:5-44
MERGED from [androidx.vectordrawable:vectordrawable-animated:1.1.0] /Users/admin/.gradle/caches/transforms-3/80a0138e8c60a7516785efaf8dfd795a/transformed/vectordrawable-animated-1.1.0/AndroidManifest.xml:20:5-22:41
MERGED from [androidx.vectordrawable:vectordrawable-animated:1.1.0] /Users/admin/.gradle/caches/transforms-3/80a0138e8c60a7516785efaf8dfd795a/transformed/vectordrawable-animated-1.1.0/AndroidManifest.xml:20:5-22:41
MERGED from [androidx.vectordrawable:vectordrawable:1.1.0] /Users/admin/.gradle/caches/transforms-3/424f890fe8622dde08059ad036b58b7e/transformed/vectordrawable-1.1.0/AndroidManifest.xml:20:5-22:41
MERGED from [androidx.vectordrawable:vectordrawable:1.1.0] /Users/admin/.gradle/caches/transforms-3/424f890fe8622dde08059ad036b58b7e/transformed/vectordrawable-1.1.0/AndroidManifest.xml:20:5-22:41
MERGED from [androidx.viewpager:viewpager:1.0.0] /Users/admin/.gradle/caches/transforms-3/f5e70c2f711b5e203c26b6cab0f2f096/transformed/viewpager-1.0.0/AndroidManifest.xml:20:5-44
MERGED from [androidx.viewpager:viewpager:1.0.0] /Users/admin/.gradle/caches/transforms-3/f5e70c2f711b5e203c26b6cab0f2f096/transformed/viewpager-1.0.0/AndroidManifest.xml:20:5-44
MERGED from [androidx.recyclerview:recyclerview:1.1.0] /Users/admin/.gradle/caches/transforms-3/1d74f8570861ae29793135827590fc1b/transformed/recyclerview-1.1.0/AndroidManifest.xml:20:5-22:41
MERGED from [androidx.recyclerview:recyclerview:1.1.0] /Users/admin/.gradle/caches/transforms-3/1d74f8570861ae29793135827590fc1b/transformed/recyclerview-1.1.0/AndroidManifest.xml:20:5-22:41
MERGED from [androidx.customview:customview:1.0.0] /Users/admin/.gradle/caches/transforms-3/156ccde47985acbd22f61b88769a582b/transformed/customview-1.0.0/AndroidManifest.xml:20:5-44
MERGED from [androidx.customview:customview:1.0.0] /Users/admin/.gradle/caches/transforms-3/156ccde47985acbd22f61b88769a582b/transformed/customview-1.0.0/AndroidManifest.xml:20:5-44
MERGED from [androidx.transition:transition:1.2.0] /Users/admin/.gradle/caches/transforms-3/bc4630f7968b1f3eb8f0d04812c2ae29/transformed/transition-1.2.0/AndroidManifest.xml:20:5-22:41
MERGED from [androidx.transition:transition:1.2.0] /Users/admin/.gradle/caches/transforms-3/bc4630f7968b1f3eb8f0d04812c2ae29/transformed/transition-1.2.0/AndroidManifest.xml:20:5-22:41
MERGED from [androidx.loader:loader:1.0.0] /Users/admin/.gradle/caches/transforms-3/f2782bc466a14e48ac3fd50422df07eb/transformed/loader-1.0.0/AndroidManifest.xml:20:5-44
MERGED from [androidx.loader:loader:1.0.0] /Users/admin/.gradle/caches/transforms-3/f2782bc466a14e48ac3fd50422df07eb/transformed/loader-1.0.0/AndroidManifest.xml:20:5-44
MERGED from [androidx.core:core:1.7.0] /Users/admin/.gradle/caches/transforms-3/75e4635b66fa4e4e84e71b52579837ce/transformed/core-1.7.0/AndroidManifest.xml:20:5-22:41
MERGED from [androidx.core:core:1.7.0] /Users/admin/.gradle/caches/transforms-3/75e4635b66fa4e4e84e71b52579837ce/transformed/core-1.7.0/AndroidManifest.xml:20:5-22:41
MERGED from [androidx.cursoradapter:cursoradapter:1.0.0] /Users/admin/.gradle/caches/transforms-3/da6b1dd448f2c4a1e044c031e9364089/transformed/cursoradapter-1.0.0/AndroidManifest.xml:20:5-44
MERGED from [androidx.cursoradapter:cursoradapter:1.0.0] /Users/admin/.gradle/caches/transforms-3/da6b1dd448f2c4a1e044c031e9364089/transformed/cursoradapter-1.0.0/AndroidManifest.xml:20:5-44
MERGED from [androidx.lifecycle:lifecycle-viewmodel-savedstate:2.3.1] /Users/admin/.gradle/caches/transforms-3/05e32d0972721ec86db9faf3518c82bb/transformed/jetified-lifecycle-viewmodel-savedstate-2.3.1/AndroidManifest.xml:20:5-22:41
MERGED from [androidx.lifecycle:lifecycle-viewmodel-savedstate:2.3.1] /Users/admin/.gradle/caches/transforms-3/05e32d0972721ec86db9faf3518c82bb/transformed/jetified-lifecycle-viewmodel-savedstate-2.3.1/AndroidManifest.xml:20:5-22:41
MERGED from [androidx.savedstate:savedstate:1.1.0] /Users/admin/.gradle/caches/transforms-3/98e95a351ab9bde9d0757d3ba2da6dd9/transformed/jetified-savedstate-1.1.0/AndroidManifest.xml:20:5-22:41
MERGED from [androidx.savedstate:savedstate:1.1.0] /Users/admin/.gradle/caches/transforms-3/98e95a351ab9bde9d0757d3ba2da6dd9/transformed/jetified-savedstate-1.1.0/AndroidManifest.xml:20:5-22:41
MERGED from [androidx.lifecycle:lifecycle-viewmodel:2.3.1] /Users/admin/.gradle/caches/transforms-3/8c6c5513f4a20550a4fe8e18d90a0b23/transformed/lifecycle-viewmodel-2.3.1/AndroidManifest.xml:20:5-22:41
MERGED from [androidx.lifecycle:lifecycle-viewmodel:2.3.1] /Users/admin/.gradle/caches/transforms-3/8c6c5513f4a20550a4fe8e18d90a0b23/transformed/lifecycle-viewmodel-2.3.1/AndroidManifest.xml:20:5-22:41
MERGED from [androidx.interpolator:interpolator:1.0.0] /Users/admin/.gradle/caches/transforms-3/9eef969e6025718ac1fde2c52b3066d8/transformed/interpolator-1.0.0/AndroidManifest.xml:20:5-44
MERGED from [androidx.interpolator:interpolator:1.0.0] /Users/admin/.gradle/caches/transforms-3/9eef969e6025718ac1fde2c52b3066d8/transformed/interpolator-1.0.0/AndroidManifest.xml:20:5-44
MERGED from [androidx.cardview:cardview:1.0.0] /Users/admin/.gradle/caches/transforms-3/c785f2650a4ab9597610a42a5423b6e7/transformed/cardview-1.0.0/AndroidManifest.xml:20:5-44
MERGED from [androidx.cardview:cardview:1.0.0] /Users/admin/.gradle/caches/transforms-3/c785f2650a4ab9597610a42a5423b6e7/transformed/cardview-1.0.0/AndroidManifest.xml:20:5-44
MERGED from [androidx.versionedparcelable:versionedparcelable:1.1.1] /Users/admin/.gradle/caches/transforms-3/a1eec6f4e1f4253fcf428dd43a9fa3cd/transformed/versionedparcelable-1.1.1/AndroidManifest.xml:20:5-22:41
MERGED from [androidx.versionedparcelable:versionedparcelable:1.1.1] /Users/admin/.gradle/caches/transforms-3/a1eec6f4e1f4253fcf428dd43a9fa3cd/transformed/versionedparcelable-1.1.1/AndroidManifest.xml:20:5-22:41
MERGED from [androidx.lifecycle:lifecycle-livedata:2.1.0] /Users/admin/.gradle/caches/transforms-3/2efc0e3fcc5a7d654b5f7e93b13594df/transformed/lifecycle-livedata-2.1.0/AndroidManifest.xml:20:5-44
MERGED from [androidx.lifecycle:lifecycle-livedata:2.1.0] /Users/admin/.gradle/caches/transforms-3/2efc0e3fcc5a7d654b5f7e93b13594df/transformed/lifecycle-livedata-2.1.0/AndroidManifest.xml:20:5-44
MERGED from [androidx.lifecycle:lifecycle-livedata-core:2.3.1] /Users/admin/.gradle/caches/transforms-3/6f02cdabe3b0f4b648ca283ad9ff996c/transformed/lifecycle-livedata-core-2.3.1/AndroidManifest.xml:20:5-22:41
MERGED from [androidx.lifecycle:lifecycle-livedata-core:2.3.1] /Users/admin/.gradle/caches/transforms-3/6f02cdabe3b0f4b648ca283ad9ff996c/transformed/lifecycle-livedata-core-2.3.1/AndroidManifest.xml:20:5-22:41
MERGED from [androidx.lifecycle:lifecycle-service:2.1.0] /Users/admin/.gradle/caches/transforms-3/7d5deae39a994bbf8419f8d5ee77d017/transformed/jetified-lifecycle-service-2.1.0/AndroidManifest.xml:20:5-44
MERGED from [androidx.lifecycle:lifecycle-service:2.1.0] /Users/admin/.gradle/caches/transforms-3/7d5deae39a994bbf8419f8d5ee77d017/transformed/jetified-lifecycle-service-2.1.0/AndroidManifest.xml:20:5-44
MERGED from [androidx.lifecycle:lifecycle-runtime:2.4.0] /Users/admin/.gradle/caches/transforms-3/cf8c141c143f512e5d69201abc198297/transformed/lifecycle-runtime-2.4.0/AndroidManifest.xml:20:5-22:41
MERGED from [androidx.lifecycle:lifecycle-runtime:2.4.0] /Users/admin/.gradle/caches/transforms-3/cf8c141c143f512e5d69201abc198297/transformed/lifecycle-runtime-2.4.0/AndroidManifest.xml:20:5-22:41
MERGED from [androidx.arch.core:core-runtime:2.1.0] /Users/admin/.gradle/caches/transforms-3/9e963b848f7749309ceb54174b3bfd88/transformed/core-runtime-2.1.0/AndroidManifest.xml:20:5-22:41
MERGED from [androidx.arch.core:core-runtime:2.1.0] /Users/admin/.gradle/caches/transforms-3/9e963b848f7749309ceb54174b3bfd88/transformed/core-runtime-2.1.0/AndroidManifest.xml:20:5-22:41
MERGED from [com.facebook.fresco:fbcore:2.6.0] /Users/admin/.gradle/caches/transforms-3/6b675b8779f5bce57b5bb10c07a431c5/transformed/jetified-fbcore-2.6.0/AndroidManifest.xml:5:5-7:41
MERGED from [com.facebook.fresco:fbcore:2.6.0] /Users/admin/.gradle/caches/transforms-3/6b675b8779f5bce57b5bb10c07a431c5/transformed/jetified-fbcore-2.6.0/AndroidManifest.xml:5:5-7:41
MERGED from [androidx.annotation:annotation-experimental:1.1.0] /Users/admin/.gradle/caches/transforms-3/ea88610a3c8be13450373fa73372379b/transformed/jetified-annotation-experimental-1.1.0/AndroidManifest.xml:20:5-22:41
MERGED from [androidx.annotation:annotation-experimental:1.1.0] /Users/admin/.gradle/caches/transforms-3/ea88610a3c8be13450373fa73372379b/transformed/jetified-annotation-experimental-1.1.0/AndroidManifest.xml:20:5-22:41
INJECTED from /Users/admin/Desktop/Sismi/CountryList/GITFOLDER/assignment/android/app/src/debug/AndroidManifest.xml
INJECTED from /Users/admin/Desktop/Sismi/CountryList/GITFOLDER/assignment/android/app/src/debug/AndroidManifest.xml
	android:targetSdkVersion
		INJECTED from /Users/admin/Desktop/Sismi/CountryList/GITFOLDER/assignment/android/app/src/main/AndroidManifest.xml
		INJECTED from /Users/admin/Desktop/Sismi/CountryList/GITFOLDER/assignment/android/app/src/debug/AndroidManifest.xml
	android:minSdkVersion
		INJECTED from /Users/admin/Desktop/Sismi/CountryList/GITFOLDER/assignment/android/app/src/main/AndroidManifest.xml
		INJECTED from /Users/admin/Desktop/Sismi/CountryList/GITFOLDER/assignment/android/app/src/debug/AndroidManifest.xml
uses-permission#android.permission.SYSTEM_ALERT_WINDOW
ADDED from /Users/admin/Desktop/Sismi/CountryList/GITFOLDER/assignment/android/app/src/debug/AndroidManifest.xml:5:5-77
	android:name
		ADDED from /Users/admin/Desktop/Sismi/CountryList/GITFOLDER/assignment/android/app/src/debug/AndroidManifest.xml:5:22-75
activity#com.facebook.react.devsupport.DevSettingsActivity
ADDED from /Users/admin/Desktop/Sismi/CountryList/GITFOLDER/assignment/android/app/src/debug/AndroidManifest.xml:11:9-111
	android:exported
		ADDED from /Users/admin/Desktop/Sismi/CountryList/GITFOLDER/assignment/android/app/src/debug/AndroidManifest.xml:11:84-108
	android:name
		ADDED from /Users/admin/Desktop/Sismi/CountryList/GITFOLDER/assignment/android/app/src/debug/AndroidManifest.xml:11:19-83
uses-permission#android.permission.ACCESS_WIFI_STATE
ADDED from [com.facebook.flipper:flipper:0.182.0] /Users/admin/.gradle/caches/transforms-3/e13f88164840fe641a466d05cd8edac7/transformed/jetified-flipper-0.182.0/AndroidManifest.xml:16:5-76
	android:name
		ADDED from [com.facebook.flipper:flipper:0.182.0] /Users/admin/.gradle/caches/transforms-3/e13f88164840fe641a466d05cd8edac7/transformed/jetified-flipper-0.182.0/AndroidManifest.xml:16:22-73
meta-data#com.facebook.soloader.enabled
ADDED from [com.facebook.soloader:soloader:0.10.5] /Users/admin/.gradle/caches/transforms-3/ec3312a013bd7d8a70466a1977a1dba4/transformed/jetified-soloader-0.10.5/AndroidManifest.xml:12:9-14:37
	android:value
		ADDED from [com.facebook.soloader:soloader:0.10.5] /Users/admin/.gradle/caches/transforms-3/ec3312a013bd7d8a70466a1977a1dba4/transformed/jetified-soloader-0.10.5/AndroidManifest.xml:14:13-34
	android:name
		ADDED from [com.facebook.soloader:soloader:0.10.5] /Users/admin/.gradle/caches/transforms-3/ec3312a013bd7d8a70466a1977a1dba4/transformed/jetified-soloader-0.10.5/AndroidManifest.xml:13:13-57
uses-permission#android.permission.WAKE_LOCK
ADDED from [androidx.work:work-runtime:2.7.1] /Users/admin/.gradle/caches/transforms-3/a93c68fb1d2792ca1942259f5092d83b/transformed/work-runtime-2.7.1/AndroidManifest.xml:25:5-68
	android:name
		ADDED from [androidx.work:work-runtime:2.7.1] /Users/admin/.gradle/caches/transforms-3/a93c68fb1d2792ca1942259f5092d83b/transformed/work-runtime-2.7.1/AndroidManifest.xml:25:22-65
uses-permission#android.permission.ACCESS_NETWORK_STATE
ADDED from [androidx.work:work-runtime:2.7.1] /Users/admin/.gradle/caches/transforms-3/a93c68fb1d2792ca1942259f5092d83b/transformed/work-runtime-2.7.1/AndroidManifest.xml:26:5-79
MERGED from [com.google.android.gms:play-services-maps:18.0.2] /Users/admin/.gradle/caches/transforms-3/4fe486e3c16899c67b1f49a3e3ae28f6/transformed/jetified-play-services-maps-18.0.2/AndroidManifest.xml:23:5-79
MERGED from [com.google.android.gms:play-services-maps:18.0.2] /Users/admin/.gradle/caches/transforms-3/4fe486e3c16899c67b1f49a3e3ae28f6/transformed/jetified-play-services-maps-18.0.2/AndroidManifest.xml:23:5-79
	android:name
		ADDED from [androidx.work:work-runtime:2.7.1] /Users/admin/.gradle/caches/transforms-3/a93c68fb1d2792ca1942259f5092d83b/transformed/work-runtime-2.7.1/AndroidManifest.xml:26:22-76
uses-permission#android.permission.RECEIVE_BOOT_COMPLETED
ADDED from [androidx.work:work-runtime:2.7.1] /Users/admin/.gradle/caches/transforms-3/a93c68fb1d2792ca1942259f5092d83b/transformed/work-runtime-2.7.1/AndroidManifest.xml:27:5-81
	android:name
		ADDED from [androidx.work:work-runtime:2.7.1] /Users/admin/.gradle/caches/transforms-3/a93c68fb1d2792ca1942259f5092d83b/transformed/work-runtime-2.7.1/AndroidManifest.xml:27:22-78
uses-permission#android.permission.FOREGROUND_SERVICE
ADDED from [androidx.work:work-runtime:2.7.1] /Users/admin/.gradle/caches/transforms-3/a93c68fb1d2792ca1942259f5092d83b/transformed/work-runtime-2.7.1/AndroidManifest.xml:28:5-77
	android:name
		ADDED from [androidx.work:work-runtime:2.7.1] /Users/admin/.gradle/caches/transforms-3/a93c68fb1d2792ca1942259f5092d83b/transformed/work-runtime-2.7.1/AndroidManifest.xml:28:22-74
provider#androidx.startup.InitializationProvider
ADDED from [androidx.work:work-runtime:2.7.1] /Users/admin/.gradle/caches/transforms-3/a93c68fb1d2792ca1942259f5092d83b/transformed/work-runtime-2.7.1/AndroidManifest.xml:31:9-39:20
MERGED from [androidx.emoji2:emoji2:1.0.0] /Users/admin/.gradle/caches/transforms-3/223146ef33e3aa619e8b04649706e145/transformed/jetified-emoji2-1.0.0/AndroidManifest.xml:26:9-34:20
MERGED from [androidx.emoji2:emoji2:1.0.0] /Users/admin/.gradle/caches/transforms-3/223146ef33e3aa619e8b04649706e145/transformed/jetified-emoji2-1.0.0/AndroidManifest.xml:26:9-34:20
MERGED from [androidx.lifecycle:lifecycle-process:2.4.0] /Users/admin/.gradle/caches/transforms-3/d5d05479173d466a6bd0989b3b3e5ef4/transformed/jetified-lifecycle-process-2.4.0/AndroidManifest.xml:26:9-34:20
MERGED from [androidx.lifecycle:lifecycle-process:2.4.0] /Users/admin/.gradle/caches/transforms-3/d5d05479173d466a6bd0989b3b3e5ef4/transformed/jetified-lifecycle-process-2.4.0/AndroidManifest.xml:26:9-34:20
MERGED from [androidx.startup:startup-runtime:1.0.0] /Users/admin/.gradle/caches/transforms-3/cd3884f773085f1dee1d35041010e253/transformed/jetified-startup-runtime-1.0.0/AndroidManifest.xml:26:9-30:34
MERGED from [androidx.startup:startup-runtime:1.0.0] /Users/admin/.gradle/caches/transforms-3/cd3884f773085f1dee1d35041010e253/transformed/jetified-startup-runtime-1.0.0/AndroidManifest.xml:26:9-30:34
	tools:node
		ADDED from [androidx.work:work-runtime:2.7.1] /Users/admin/.gradle/caches/transforms-3/a93c68fb1d2792ca1942259f5092d83b/transformed/work-runtime-2.7.1/AndroidManifest.xml:35:13-31
	android:authorities
		ADDED from [androidx.work:work-runtime:2.7.1] /Users/admin/.gradle/caches/transforms-3/a93c68fb1d2792ca1942259f5092d83b/transformed/work-runtime-2.7.1/AndroidManifest.xml:33:13-68
	android:exported
		ADDED from [androidx.work:work-runtime:2.7.1] /Users/admin/.gradle/caches/transforms-3/a93c68fb1d2792ca1942259f5092d83b/transformed/work-runtime-2.7.1/AndroidManifest.xml:34:13-37
	android:name
		ADDED from [androidx.work:work-runtime:2.7.1] /Users/admin/.gradle/caches/transforms-3/a93c68fb1d2792ca1942259f5092d83b/transformed/work-runtime-2.7.1/AndroidManifest.xml:32:13-67
meta-data#androidx.work.WorkManagerInitializer
ADDED from [androidx.work:work-runtime:2.7.1] /Users/admin/.gradle/caches/transforms-3/a93c68fb1d2792ca1942259f5092d83b/transformed/work-runtime-2.7.1/AndroidManifest.xml:36:13-38:52
	android:value
		ADDED from [androidx.work:work-runtime:2.7.1] /Users/admin/.gradle/caches/transforms-3/a93c68fb1d2792ca1942259f5092d83b/transformed/work-runtime-2.7.1/AndroidManifest.xml:38:17-49
	android:name
		ADDED from [androidx.work:work-runtime:2.7.1] /Users/admin/.gradle/caches/transforms-3/a93c68fb1d2792ca1942259f5092d83b/transformed/work-runtime-2.7.1/AndroidManifest.xml:37:17-68
service#androidx.work.impl.background.systemalarm.SystemAlarmService
ADDED from [androidx.work:work-runtime:2.7.1] /Users/admin/.gradle/caches/transforms-3/a93c68fb1d2792ca1942259f5092d83b/transformed/work-runtime-2.7.1/AndroidManifest.xml:41:9-46:35
	android:enabled
		ADDED from [androidx.work:work-runtime:2.7.1] /Users/admin/.gradle/caches/transforms-3/a93c68fb1d2792ca1942259f5092d83b/transformed/work-runtime-2.7.1/AndroidManifest.xml:44:13-72
	android:exported
		ADDED from [androidx.work:work-runtime:2.7.1] /Users/admin/.gradle/caches/transforms-3/a93c68fb1d2792ca1942259f5092d83b/transformed/work-runtime-2.7.1/AndroidManifest.xml:45:13-37
	tools:targetApi
		ADDED from [androidx.work:work-runtime:2.7.1] /Users/admin/.gradle/caches/transforms-3/a93c68fb1d2792ca1942259f5092d83b/transformed/work-runtime-2.7.1/AndroidManifest.xml:46:13-32
	android:directBootAware
		ADDED from [androidx.work:work-runtime:2.7.1] /Users/admin/.gradle/caches/transforms-3/a93c68fb1d2792ca1942259f5092d83b/transformed/work-runtime-2.7.1/AndroidManifest.xml:43:13-44
	android:name
		ADDED from [androidx.work:work-runtime:2.7.1] /Users/admin/.gradle/caches/transforms-3/a93c68fb1d2792ca1942259f5092d83b/transformed/work-runtime-2.7.1/AndroidManifest.xml:42:13-88
service#androidx.work.impl.background.systemjob.SystemJobService
ADDED from [androidx.work:work-runtime:2.7.1] /Users/admin/.gradle/caches/transforms-3/a93c68fb1d2792ca1942259f5092d83b/transformed/work-runtime-2.7.1/AndroidManifest.xml:47:9-53:35
	android:enabled
		ADDED from [androidx.work:work-runtime:2.7.1] /Users/admin/.gradle/caches/transforms-3/a93c68fb1d2792ca1942259f5092d83b/transformed/work-runtime-2.7.1/AndroidManifest.xml:50:13-70
	android:exported
		ADDED from [androidx.work:work-runtime:2.7.1] /Users/admin/.gradle/caches/transforms-3/a93c68fb1d2792ca1942259f5092d83b/transformed/work-runtime-2.7.1/AndroidManifest.xml:51:13-36
	android:permission
		ADDED from [androidx.work:work-runtime:2.7.1] /Users/admin/.gradle/caches/transforms-3/a93c68fb1d2792ca1942259f5092d83b/transformed/work-runtime-2.7.1/AndroidManifest.xml:52:13-69
	tools:targetApi
		ADDED from [androidx.work:work-runtime:2.7.1] /Users/admin/.gradle/caches/transforms-3/a93c68fb1d2792ca1942259f5092d83b/transformed/work-runtime-2.7.1/AndroidManifest.xml:53:13-32
	android:directBootAware
		ADDED from [androidx.work:work-runtime:2.7.1] /Users/admin/.gradle/caches/transforms-3/a93c68fb1d2792ca1942259f5092d83b/transformed/work-runtime-2.7.1/AndroidManifest.xml:49:13-44
	android:name
		ADDED from [androidx.work:work-runtime:2.7.1] /Users/admin/.gradle/caches/transforms-3/a93c68fb1d2792ca1942259f5092d83b/transformed/work-runtime-2.7.1/AndroidManifest.xml:48:13-84
service#androidx.work.impl.foreground.SystemForegroundService
ADDED from [androidx.work:work-runtime:2.7.1] /Users/admin/.gradle/caches/transforms-3/a93c68fb1d2792ca1942259f5092d83b/transformed/work-runtime-2.7.1/AndroidManifest.xml:54:9-59:35
	android:enabled
		ADDED from [androidx.work:work-runtime:2.7.1] /Users/admin/.gradle/caches/transforms-3/a93c68fb1d2792ca1942259f5092d83b/transformed/work-runtime-2.7.1/AndroidManifest.xml:57:13-77
	android:exported
		ADDED from [androidx.work:work-runtime:2.7.1] /Users/admin/.gradle/caches/transforms-3/a93c68fb1d2792ca1942259f5092d83b/transformed/work-runtime-2.7.1/AndroidManifest.xml:58:13-37
	tools:targetApi
		ADDED from [androidx.work:work-runtime:2.7.1] /Users/admin/.gradle/caches/transforms-3/a93c68fb1d2792ca1942259f5092d83b/transformed/work-runtime-2.7.1/AndroidManifest.xml:59:13-32
	android:directBootAware
		ADDED from [androidx.work:work-runtime:2.7.1] /Users/admin/.gradle/caches/transforms-3/a93c68fb1d2792ca1942259f5092d83b/transformed/work-runtime-2.7.1/AndroidManifest.xml:56:13-44
	android:name
		ADDED from [androidx.work:work-runtime:2.7.1] /Users/admin/.gradle/caches/transforms-3/a93c68fb1d2792ca1942259f5092d83b/transformed/work-runtime-2.7.1/AndroidManifest.xml:55:13-81
receiver#androidx.work.impl.utils.ForceStopRunnable$BroadcastReceiver
ADDED from [androidx.work:work-runtime:2.7.1] /Users/admin/.gradle/caches/transforms-3/a93c68fb1d2792ca1942259f5092d83b/transformed/work-runtime-2.7.1/AndroidManifest.xml:61:9-66:35
	android:enabled
		ADDED from [androidx.work:work-runtime:2.7.1] /Users/admin/.gradle/caches/transforms-3/a93c68fb1d2792ca1942259f5092d83b/transformed/work-runtime-2.7.1/AndroidManifest.xml:64:13-35
	android:exported
		ADDED from [androidx.work:work-runtime:2.7.1] /Users/admin/.gradle/caches/transforms-3/a93c68fb1d2792ca1942259f5092d83b/transformed/work-runtime-2.7.1/AndroidManifest.xml:65:13-37
	tools:targetApi
		ADDED from [androidx.work:work-runtime:2.7.1] /Users/admin/.gradle/caches/transforms-3/a93c68fb1d2792ca1942259f5092d83b/transformed/work-runtime-2.7.1/AndroidManifest.xml:66:13-32
	android:directBootAware
		ADDED from [androidx.work:work-runtime:2.7.1] /Users/admin/.gradle/caches/transforms-3/a93c68fb1d2792ca1942259f5092d83b/transformed/work-runtime-2.7.1/AndroidManifest.xml:63:13-44
	android:name
		ADDED from [androidx.work:work-runtime:2.7.1] /Users/admin/.gradle/caches/transforms-3/a93c68fb1d2792ca1942259f5092d83b/transformed/work-runtime-2.7.1/AndroidManifest.xml:62:13-88
receiver#androidx.work.impl.background.systemalarm.ConstraintProxy$BatteryChargingProxy
ADDED from [androidx.work:work-runtime:2.7.1] /Users/admin/.gradle/caches/transforms-3/a93c68fb1d2792ca1942259f5092d83b/transformed/work-runtime-2.7.1/AndroidManifest.xml:67:9-77:20
	android:enabled
		ADDED from [androidx.work:work-runtime:2.7.1] /Users/admin/.gradle/caches/transforms-3/a93c68fb1d2792ca1942259f5092d83b/transformed/work-runtime-2.7.1/AndroidManifest.xml:70:13-36
	android:exported
		ADDED from [androidx.work:work-runtime:2.7.1] /Users/admin/.gradle/caches/transforms-3/a93c68fb1d2792ca1942259f5092d83b/transformed/work-runtime-2.7.1/AndroidManifest.xml:71:13-37
	tools:targetApi
		ADDED from [androidx.work:work-runtime:2.7.1] /Users/admin/.gradle/caches/transforms-3/a93c68fb1d2792ca1942259f5092d83b/transformed/work-runtime-2.7.1/AndroidManifest.xml:72:13-32
	android:directBootAware
		ADDED from [androidx.work:work-runtime:2.7.1] /Users/admin/.gradle/caches/transforms-3/a93c68fb1d2792ca1942259f5092d83b/transformed/work-runtime-2.7.1/AndroidManifest.xml:69:13-44
	android:name
		ADDED from [androidx.work:work-runtime:2.7.1] /Users/admin/.gradle/caches/transforms-3/a93c68fb1d2792ca1942259f5092d83b/transformed/work-runtime-2.7.1/AndroidManifest.xml:68:13-106
intent-filter#action:name:android.intent.action.ACTION_POWER_CONNECTED+action:name:android.intent.action.ACTION_POWER_DISCONNECTED
ADDED from [androidx.work:work-runtime:2.7.1] /Users/admin/.gradle/caches/transforms-3/a93c68fb1d2792ca1942259f5092d83b/transformed/work-runtime-2.7.1/AndroidManifest.xml:73:13-76:29
action#android.intent.action.ACTION_POWER_CONNECTED
ADDED from [androidx.work:work-runtime:2.7.1] /Users/admin/.gradle/caches/transforms-3/a93c68fb1d2792ca1942259f5092d83b/transformed/work-runtime-2.7.1/AndroidManifest.xml:74:17-87
	android:name
		ADDED from [androidx.work:work-runtime:2.7.1] /Users/admin/.gradle/caches/transforms-3/a93c68fb1d2792ca1942259f5092d83b/transformed/work-runtime-2.7.1/AndroidManifest.xml:74:25-84
action#android.intent.action.ACTION_POWER_DISCONNECTED
ADDED from [androidx.work:work-runtime:2.7.1] /Users/admin/.gradle/caches/transforms-3/a93c68fb1d2792ca1942259f5092d83b/transformed/work-runtime-2.7.1/AndroidManifest.xml:75:17-90
	android:name
		ADDED from [androidx.work:work-runtime:2.7.1] /Users/admin/.gradle/caches/transforms-3/a93c68fb1d2792ca1942259f5092d83b/transformed/work-runtime-2.7.1/AndroidManifest.xml:75:25-87
receiver#androidx.work.impl.background.systemalarm.ConstraintProxy$BatteryNotLowProxy
ADDED from [androidx.work:work-runtime:2.7.1] /Users/admin/.gradle/caches/transforms-3/a93c68fb1d2792ca1942259f5092d83b/transformed/work-runtime-2.7.1/AndroidManifest.xml:78:9-88:20
	android:enabled
		ADDED from [androidx.work:work-runtime:2.7.1] /Users/admin/.gradle/caches/transforms-3/a93c68fb1d2792ca1942259f5092d83b/transformed/work-runtime-2.7.1/AndroidManifest.xml:81:13-36
	android:exported
		ADDED from [androidx.work:work-runtime:2.7.1] /Users/admin/.gradle/caches/transforms-3/a93c68fb1d2792ca1942259f5092d83b/transformed/work-runtime-2.7.1/AndroidManifest.xml:82:13-37
	tools:targetApi
		ADDED from [androidx.work:work-runtime:2.7.1] /Users/admin/.gradle/caches/transforms-3/a93c68fb1d2792ca1942259f5092d83b/transformed/work-runtime-2.7.1/AndroidManifest.xml:83:13-32
	android:directBootAware
		ADDED from [androidx.work:work-runtime:2.7.1] /Users/admin/.gradle/caches/transforms-3/a93c68fb1d2792ca1942259f5092d83b/transformed/work-runtime-2.7.1/AndroidManifest.xml:80:13-44
	android:name
		ADDED from [androidx.work:work-runtime:2.7.1] /Users/admin/.gradle/caches/transforms-3/a93c68fb1d2792ca1942259f5092d83b/transformed/work-runtime-2.7.1/AndroidManifest.xml:79:13-104
intent-filter#action:name:android.intent.action.BATTERY_LOW+action:name:android.intent.action.BATTERY_OKAY
ADDED from [androidx.work:work-runtime:2.7.1] /Users/admin/.gradle/caches/transforms-3/a93c68fb1d2792ca1942259f5092d83b/transformed/work-runtime-2.7.1/AndroidManifest.xml:84:13-87:29
action#android.intent.action.BATTERY_OKAY
ADDED from [androidx.work:work-runtime:2.7.1] /Users/admin/.gradle/caches/transforms-3/a93c68fb1d2792ca1942259f5092d83b/transformed/work-runtime-2.7.1/AndroidManifest.xml:85:17-77
	android:name
		ADDED from [androidx.work:work-runtime:2.7.1] /Users/admin/.gradle/caches/transforms-3/a93c68fb1d2792ca1942259f5092d83b/transformed/work-runtime-2.7.1/AndroidManifest.xml:85:25-74
action#android.intent.action.BATTERY_LOW
ADDED from [androidx.work:work-runtime:2.7.1] /Users/admin/.gradle/caches/transforms-3/a93c68fb1d2792ca1942259f5092d83b/transformed/work-runtime-2.7.1/AndroidManifest.xml:86:17-76
	android:name
		ADDED from [androidx.work:work-runtime:2.7.1] /Users/admin/.gradle/caches/transforms-3/a93c68fb1d2792ca1942259f5092d83b/transformed/work-runtime-2.7.1/AndroidManifest.xml:86:25-73
receiver#androidx.work.impl.background.systemalarm.ConstraintProxy$StorageNotLowProxy
ADDED from [androidx.work:work-runtime:2.7.1] /Users/admin/.gradle/caches/transforms-3/a93c68fb1d2792ca1942259f5092d83b/transformed/work-runtime-2.7.1/AndroidManifest.xml:89:9-99:20
	android:enabled
		ADDED from [androidx.work:work-runtime:2.7.1] /Users/admin/.gradle/caches/transforms-3/a93c68fb1d2792ca1942259f5092d83b/transformed/work-runtime-2.7.1/AndroidManifest.xml:92:13-36
	android:exported
		ADDED from [androidx.work:work-runtime:2.7.1] /Users/admin/.gradle/caches/transforms-3/a93c68fb1d2792ca1942259f5092d83b/transformed/work-runtime-2.7.1/AndroidManifest.xml:93:13-37
	tools:targetApi
		ADDED from [androidx.work:work-runtime:2.7.1] /Users/admin/.gradle/caches/transforms-3/a93c68fb1d2792ca1942259f5092d83b/transformed/work-runtime-2.7.1/AndroidManifest.xml:94:13-32
	android:directBootAware
		ADDED from [androidx.work:work-runtime:2.7.1] /Users/admin/.gradle/caches/transforms-3/a93c68fb1d2792ca1942259f5092d83b/transformed/work-runtime-2.7.1/AndroidManifest.xml:91:13-44
	android:name
		ADDED from [androidx.work:work-runtime:2.7.1] /Users/admin/.gradle/caches/transforms-3/a93c68fb1d2792ca1942259f5092d83b/transformed/work-runtime-2.7.1/AndroidManifest.xml:90:13-104
intent-filter#action:name:android.intent.action.DEVICE_STORAGE_LOW+action:name:android.intent.action.DEVICE_STORAGE_OK
ADDED from [androidx.work:work-runtime:2.7.1] /Users/admin/.gradle/caches/transforms-3/a93c68fb1d2792ca1942259f5092d83b/transformed/work-runtime-2.7.1/AndroidManifest.xml:95:13-98:29
action#android.intent.action.DEVICE_STORAGE_LOW
ADDED from [androidx.work:work-runtime:2.7.1] /Users/admin/.gradle/caches/transforms-3/a93c68fb1d2792ca1942259f5092d83b/transformed/work-runtime-2.7.1/AndroidManifest.xml:96:17-83
	android:name
		ADDED from [androidx.work:work-runtime:2.7.1] /Users/admin/.gradle/caches/transforms-3/a93c68fb1d2792ca1942259f5092d83b/transformed/work-runtime-2.7.1/AndroidManifest.xml:96:25-80
action#android.intent.action.DEVICE_STORAGE_OK
ADDED from [androidx.work:work-runtime:2.7.1] /Users/admin/.gradle/caches/transforms-3/a93c68fb1d2792ca1942259f5092d83b/transformed/work-runtime-2.7.1/AndroidManifest.xml:97:17-82
	android:name
		ADDED from [androidx.work:work-runtime:2.7.1] /Users/admin/.gradle/caches/transforms-3/a93c68fb1d2792ca1942259f5092d83b/transformed/work-runtime-2.7.1/AndroidManifest.xml:97:25-79
receiver#androidx.work.impl.background.systemalarm.ConstraintProxy$NetworkStateProxy
ADDED from [androidx.work:work-runtime:2.7.1] /Users/admin/.gradle/caches/transforms-3/a93c68fb1d2792ca1942259f5092d83b/transformed/work-runtime-2.7.1/AndroidManifest.xml:100:9-109:20
	android:enabled
		ADDED from [androidx.work:work-runtime:2.7.1] /Users/admin/.gradle/caches/transforms-3/a93c68fb1d2792ca1942259f5092d83b/transformed/work-runtime-2.7.1/AndroidManifest.xml:103:13-36
	android:exported
		ADDED from [androidx.work:work-runtime:2.7.1] /Users/admin/.gradle/caches/transforms-3/a93c68fb1d2792ca1942259f5092d83b/transformed/work-runtime-2.7.1/AndroidManifest.xml:104:13-37
	tools:targetApi
		ADDED from [androidx.work:work-runtime:2.7.1] /Users/admin/.gradle/caches/transforms-3/a93c68fb1d2792ca1942259f5092d83b/transformed/work-runtime-2.7.1/AndroidManifest.xml:105:13-32
	android:directBootAware
		ADDED from [androidx.work:work-runtime:2.7.1] /Users/admin/.gradle/caches/transforms-3/a93c68fb1d2792ca1942259f5092d83b/transformed/work-runtime-2.7.1/AndroidManifest.xml:102:13-44
	android:name
		ADDED from [androidx.work:work-runtime:2.7.1] /Users/admin/.gradle/caches/transforms-3/a93c68fb1d2792ca1942259f5092d83b/transformed/work-runtime-2.7.1/AndroidManifest.xml:101:13-103
intent-filter#action:name:android.net.conn.CONNECTIVITY_CHANGE
ADDED from [androidx.work:work-runtime:2.7.1] /Users/admin/.gradle/caches/transforms-3/a93c68fb1d2792ca1942259f5092d83b/transformed/work-runtime-2.7.1/AndroidManifest.xml:106:13-108:29
action#android.net.conn.CONNECTIVITY_CHANGE
ADDED from [androidx.work:work-runtime:2.7.1] /Users/admin/.gradle/caches/transforms-3/a93c68fb1d2792ca1942259f5092d83b/transformed/work-runtime-2.7.1/AndroidManifest.xml:107:17-79
	android:name
		ADDED from [androidx.work:work-runtime:2.7.1] /Users/admin/.gradle/caches/transforms-3/a93c68fb1d2792ca1942259f5092d83b/transformed/work-runtime-2.7.1/AndroidManifest.xml:107:25-76
receiver#androidx.work.impl.background.systemalarm.RescheduleReceiver
ADDED from [androidx.work:work-runtime:2.7.1] /Users/admin/.gradle/caches/transforms-3/a93c68fb1d2792ca1942259f5092d83b/transformed/work-runtime-2.7.1/AndroidManifest.xml:110:9-121:20
	android:enabled
		ADDED from [androidx.work:work-runtime:2.7.1] /Users/admin/.gradle/caches/transforms-3/a93c68fb1d2792ca1942259f5092d83b/transformed/work-runtime-2.7.1/AndroidManifest.xml:113:13-36
	android:exported
		ADDED from [androidx.work:work-runtime:2.7.1] /Users/admin/.gradle/caches/transforms-3/a93c68fb1d2792ca1942259f5092d83b/transformed/work-runtime-2.7.1/AndroidManifest.xml:114:13-37
	tools:targetApi
		ADDED from [androidx.work:work-runtime:2.7.1] /Users/admin/.gradle/caches/transforms-3/a93c68fb1d2792ca1942259f5092d83b/transformed/work-runtime-2.7.1/AndroidManifest.xml:115:13-32
	android:directBootAware
		ADDED from [androidx.work:work-runtime:2.7.1] /Users/admin/.gradle/caches/transforms-3/a93c68fb1d2792ca1942259f5092d83b/transformed/work-runtime-2.7.1/AndroidManifest.xml:112:13-44
	android:name
		ADDED from [androidx.work:work-runtime:2.7.1] /Users/admin/.gradle/caches/transforms-3/a93c68fb1d2792ca1942259f5092d83b/transformed/work-runtime-2.7.1/AndroidManifest.xml:111:13-88
intent-filter#action:name:android.intent.action.BOOT_COMPLETED+action:name:android.intent.action.TIMEZONE_CHANGED+action:name:android.intent.action.TIME_SET
ADDED from [androidx.work:work-runtime:2.7.1] /Users/admin/.gradle/caches/transforms-3/a93c68fb1d2792ca1942259f5092d83b/transformed/work-runtime-2.7.1/AndroidManifest.xml:116:13-120:29
action#android.intent.action.BOOT_COMPLETED
ADDED from [androidx.work:work-runtime:2.7.1] /Users/admin/.gradle/caches/transforms-3/a93c68fb1d2792ca1942259f5092d83b/transformed/work-runtime-2.7.1/AndroidManifest.xml:117:17-79
	android:name
		ADDED from [androidx.work:work-runtime:2.7.1] /Users/admin/.gradle/caches/transforms-3/a93c68fb1d2792ca1942259f5092d83b/transformed/work-runtime-2.7.1/AndroidManifest.xml:117:25-76
action#android.intent.action.TIME_SET
ADDED from [androidx.work:work-runtime:2.7.1] /Users/admin/.gradle/caches/transforms-3/a93c68fb1d2792ca1942259f5092d83b/transformed/work-runtime-2.7.1/AndroidManifest.xml:118:17-73
	android:name
		ADDED from [androidx.work:work-runtime:2.7.1] /Users/admin/.gradle/caches/transforms-3/a93c68fb1d2792ca1942259f5092d83b/transformed/work-runtime-2.7.1/AndroidManifest.xml:118:25-70
action#android.intent.action.TIMEZONE_CHANGED
ADDED from [androidx.work:work-runtime:2.7.1] /Users/admin/.gradle/caches/transforms-3/a93c68fb1d2792ca1942259f5092d83b/transformed/work-runtime-2.7.1/AndroidManifest.xml:119:17-81
	android:name
		ADDED from [androidx.work:work-runtime:2.7.1] /Users/admin/.gradle/caches/transforms-3/a93c68fb1d2792ca1942259f5092d83b/transformed/work-runtime-2.7.1/AndroidManifest.xml:119:25-78
receiver#androidx.work.impl.background.systemalarm.ConstraintProxyUpdateReceiver
ADDED from [androidx.work:work-runtime:2.7.1] /Users/admin/.gradle/caches/transforms-3/a93c68fb1d2792ca1942259f5092d83b/transformed/work-runtime-2.7.1/AndroidManifest.xml:122:9-131:20
	android:enabled
		ADDED from [androidx.work:work-runtime:2.7.1] /Users/admin/.gradle/caches/transforms-3/a93c68fb1d2792ca1942259f5092d83b/transformed/work-runtime-2.7.1/AndroidManifest.xml:125:13-72
	android:exported
		ADDED from [androidx.work:work-runtime:2.7.1] /Users/admin/.gradle/caches/transforms-3/a93c68fb1d2792ca1942259f5092d83b/transformed/work-runtime-2.7.1/AndroidManifest.xml:126:13-37
	tools:targetApi
		ADDED from [androidx.work:work-runtime:2.7.1] /Users/admin/.gradle/caches/transforms-3/a93c68fb1d2792ca1942259f5092d83b/transformed/work-runtime-2.7.1/AndroidManifest.xml:127:13-32
	android:directBootAware
		ADDED from [androidx.work:work-runtime:2.7.1] /Users/admin/.gradle/caches/transforms-3/a93c68fb1d2792ca1942259f5092d83b/transformed/work-runtime-2.7.1/AndroidManifest.xml:124:13-44
	android:name
		ADDED from [androidx.work:work-runtime:2.7.1] /Users/admin/.gradle/caches/transforms-3/a93c68fb1d2792ca1942259f5092d83b/transformed/work-runtime-2.7.1/AndroidManifest.xml:123:13-99
intent-filter#action:name:androidx.work.impl.background.systemalarm.UpdateProxies
ADDED from [androidx.work:work-runtime:2.7.1] /Users/admin/.gradle/caches/transforms-3/a93c68fb1d2792ca1942259f5092d83b/transformed/work-runtime-2.7.1/AndroidManifest.xml:128:13-130:29
action#androidx.work.impl.background.systemalarm.UpdateProxies
ADDED from [androidx.work:work-runtime:2.7.1] /Users/admin/.gradle/caches/transforms-3/a93c68fb1d2792ca1942259f5092d83b/transformed/work-runtime-2.7.1/AndroidManifest.xml:129:17-98
	android:name
		ADDED from [androidx.work:work-runtime:2.7.1] /Users/admin/.gradle/caches/transforms-3/a93c68fb1d2792ca1942259f5092d83b/transformed/work-runtime-2.7.1/AndroidManifest.xml:129:25-95
receiver#androidx.work.impl.diagnostics.DiagnosticsReceiver
ADDED from [androidx.work:work-runtime:2.7.1] /Users/admin/.gradle/caches/transforms-3/a93c68fb1d2792ca1942259f5092d83b/transformed/work-runtime-2.7.1/AndroidManifest.xml:132:9-142:20
	android:enabled
		ADDED from [androidx.work:work-runtime:2.7.1] /Users/admin/.gradle/caches/transforms-3/a93c68fb1d2792ca1942259f5092d83b/transformed/work-runtime-2.7.1/AndroidManifest.xml:135:13-35
	android:exported
		ADDED from [androidx.work:work-runtime:2.7.1] /Users/admin/.gradle/caches/transforms-3/a93c68fb1d2792ca1942259f5092d83b/transformed/work-runtime-2.7.1/AndroidManifest.xml:136:13-36
	android:permission
		ADDED from [androidx.work:work-runtime:2.7.1] /Users/admin/.gradle/caches/transforms-3/a93c68fb1d2792ca1942259f5092d83b/transformed/work-runtime-2.7.1/AndroidManifest.xml:137:13-57
	tools:targetApi
		ADDED from [androidx.work:work-runtime:2.7.1] /Users/admin/.gradle/caches/transforms-3/a93c68fb1d2792ca1942259f5092d83b/transformed/work-runtime-2.7.1/AndroidManifest.xml:138:13-32
	android:directBootAware
		ADDED from [androidx.work:work-runtime:2.7.1] /Users/admin/.gradle/caches/transforms-3/a93c68fb1d2792ca1942259f5092d83b/transformed/work-runtime-2.7.1/AndroidManifest.xml:134:13-44
	android:name
		ADDED from [androidx.work:work-runtime:2.7.1] /Users/admin/.gradle/caches/transforms-3/a93c68fb1d2792ca1942259f5092d83b/transformed/work-runtime-2.7.1/AndroidManifest.xml:133:13-78
intent-filter#action:name:androidx.work.diagnostics.REQUEST_DIAGNOSTICS
ADDED from [androidx.work:work-runtime:2.7.1] /Users/admin/.gradle/caches/transforms-3/a93c68fb1d2792ca1942259f5092d83b/transformed/work-runtime-2.7.1/AndroidManifest.xml:139:13-141:29
action#androidx.work.diagnostics.REQUEST_DIAGNOSTICS
ADDED from [androidx.work:work-runtime:2.7.1] /Users/admin/.gradle/caches/transforms-3/a93c68fb1d2792ca1942259f5092d83b/transformed/work-runtime-2.7.1/AndroidManifest.xml:140:17-88
	android:name
		ADDED from [androidx.work:work-runtime:2.7.1] /Users/admin/.gradle/caches/transforms-3/a93c68fb1d2792ca1942259f5092d83b/transformed/work-runtime-2.7.1/AndroidManifest.xml:140:25-85
service#androidx.room.MultiInstanceInvalidationService
ADDED from [androidx.room:room-runtime:2.2.5] /Users/admin/.gradle/caches/transforms-3/32f4dc14231a603560d048af81f18073/transformed/room-runtime-2.2.5/AndroidManifest.xml:25:9-28:40
	android:exported
		ADDED from [androidx.room:room-runtime:2.2.5] /Users/admin/.gradle/caches/transforms-3/32f4dc14231a603560d048af81f18073/transformed/room-runtime-2.2.5/AndroidManifest.xml:28:13-37
	android:directBootAware
		ADDED from [androidx.room:room-runtime:2.2.5] /Users/admin/.gradle/caches/transforms-3/32f4dc14231a603560d048af81f18073/transformed/room-runtime-2.2.5/AndroidManifest.xml:27:13-43
	android:name
		ADDED from [androidx.room:room-runtime:2.2.5] /Users/admin/.gradle/caches/transforms-3/32f4dc14231a603560d048af81f18073/transformed/room-runtime-2.2.5/AndroidManifest.xml:26:13-74
uses-feature#0x00020000
ADDED from [com.google.android.gms:play-services-maps:18.0.2] /Users/admin/.gradle/caches/transforms-3/4fe486e3c16899c67b1f49a3e3ae28f6/transformed/jetified-play-services-maps-18.0.2/AndroidManifest.xml:26:5-28:35
	android:glEsVersion
		ADDED from [com.google.android.gms:play-services-maps:18.0.2] /Users/admin/.gradle/caches/transforms-3/4fe486e3c16899c67b1f49a3e3ae28f6/transformed/jetified-play-services-maps-18.0.2/AndroidManifest.xml:27:9-41
	android:required
		ADDED from [com.google.android.gms:play-services-maps:18.0.2] /Users/admin/.gradle/caches/transforms-3/4fe486e3c16899c67b1f49a3e3ae28f6/transformed/jetified-play-services-maps-18.0.2/AndroidManifest.xml:28:9-32
queries
ADDED from [com.google.android.gms:play-services-maps:18.0.2] /Users/admin/.gradle/caches/transforms-3/4fe486e3c16899c67b1f49a3e3ae28f6/transformed/jetified-play-services-maps-18.0.2/AndroidManifest.xml:30:5-34:15
package#com.google.android.apps.maps
ADDED from [com.google.android.gms:play-services-maps:18.0.2] /Users/admin/.gradle/caches/transforms-3/4fe486e3c16899c67b1f49a3e3ae28f6/transformed/jetified-play-services-maps-18.0.2/AndroidManifest.xml:33:9-64
	android:name
		ADDED from [com.google.android.gms:play-services-maps:18.0.2] /Users/admin/.gradle/caches/transforms-3/4fe486e3c16899c67b1f49a3e3ae28f6/transformed/jetified-play-services-maps-18.0.2/AndroidManifest.xml:33:18-61
uses-library#org.apache.http.legacy
ADDED from [com.google.android.gms:play-services-maps:18.0.2] /Users/admin/.gradle/caches/transforms-3/4fe486e3c16899c67b1f49a3e3ae28f6/transformed/jetified-play-services-maps-18.0.2/AndroidManifest.xml:39:9-41:40
	android:required
		ADDED from [com.google.android.gms:play-services-maps:18.0.2] /Users/admin/.gradle/caches/transforms-3/4fe486e3c16899c67b1f49a3e3ae28f6/transformed/jetified-play-services-maps-18.0.2/AndroidManifest.xml:41:13-37
	android:name
		ADDED from [com.google.android.gms:play-services-maps:18.0.2] /Users/admin/.gradle/caches/transforms-3/4fe486e3c16899c67b1f49a3e3ae28f6/transformed/jetified-play-services-maps-18.0.2/AndroidManifest.xml:40:13-50
activity#com.google.android.gms.common.api.GoogleApiActivity
ADDED from [com.google.android.gms:play-services-base:18.1.0] /Users/admin/.gradle/caches/transforms-3/7bc2107a0f24dde54b783ba4b64ec0fd/transformed/jetified-play-services-base-18.1.0/AndroidManifest.xml:20:9-22:45
	android:exported
		ADDED from [com.google.android.gms:play-services-base:18.1.0] /Users/admin/.gradle/caches/transforms-3/7bc2107a0f24dde54b783ba4b64ec0fd/transformed/jetified-play-services-base-18.1.0/AndroidManifest.xml:22:19-43
	android:theme
		ADDED from [com.google.android.gms:play-services-base:18.1.0] /Users/admin/.gradle/caches/transforms-3/7bc2107a0f24dde54b783ba4b64ec0fd/transformed/jetified-play-services-base-18.1.0/AndroidManifest.xml:21:19-78
	android:name
		ADDED from [com.google.android.gms:play-services-base:18.1.0] /Users/admin/.gradle/caches/transforms-3/7bc2107a0f24dde54b783ba4b64ec0fd/transformed/jetified-play-services-base-18.1.0/AndroidManifest.xml:20:19-85
meta-data#com.google.android.gms.version
ADDED from [com.google.android.gms:play-services-basement:18.1.0] /Users/admin/.gradle/caches/transforms-3/bf9b6fb405d2f7fd8250171739588e78/transformed/jetified-play-services-basement-18.1.0/AndroidManifest.xml:21:9-23:69
MERGED from [com.google.maps.android:android-maps-utils:3.4.0] /Users/admin/.gradle/caches/transforms-3/fa43ca7f0a9d11d60f971bb6091452d2/transformed/jetified-android-maps-utils-3.4.0/AndroidManifest.xml:10:9-12:69
MERGED from [com.google.maps.android:android-maps-utils:3.4.0] /Users/admin/.gradle/caches/transforms-3/fa43ca7f0a9d11d60f971bb6091452d2/transformed/jetified-android-maps-utils-3.4.0/AndroidManifest.xml:10:9-12:69
	android:value
		ADDED from [com.google.android.gms:play-services-basement:18.1.0] /Users/admin/.gradle/caches/transforms-3/bf9b6fb405d2f7fd8250171739588e78/transformed/jetified-play-services-basement-18.1.0/AndroidManifest.xml:23:13-66
	android:name
		ADDED from [com.google.android.gms:play-services-basement:18.1.0] /Users/admin/.gradle/caches/transforms-3/bf9b6fb405d2f7fd8250171739588e78/transformed/jetified-play-services-basement-18.1.0/AndroidManifest.xml:22:13-58
meta-data#androidx.emoji2.text.EmojiCompatInitializer
ADDED from [androidx.emoji2:emoji2:1.0.0] /Users/admin/.gradle/caches/transforms-3/223146ef33e3aa619e8b04649706e145/transformed/jetified-emoji2-1.0.0/AndroidManifest.xml:31:13-33:52
	android:value
		ADDED from [androidx.emoji2:emoji2:1.0.0] /Users/admin/.gradle/caches/transforms-3/223146ef33e3aa619e8b04649706e145/transformed/jetified-emoji2-1.0.0/AndroidManifest.xml:33:17-49
	android:name
		ADDED from [androidx.emoji2:emoji2:1.0.0] /Users/admin/.gradle/caches/transforms-3/223146ef33e3aa619e8b04649706e145/transformed/jetified-emoji2-1.0.0/AndroidManifest.xml:32:17-75
meta-data#androidx.lifecycle.ProcessLifecycleInitializer
ADDED from [androidx.lifecycle:lifecycle-process:2.4.0] /Users/admin/.gradle/caches/transforms-3/d5d05479173d466a6bd0989b3b3e5ef4/transformed/jetified-lifecycle-process-2.4.0/AndroidManifest.xml:31:13-33:52
	android:value
		ADDED from [androidx.lifecycle:lifecycle-process:2.4.0] /Users/admin/.gradle/caches/transforms-3/d5d05479173d466a6bd0989b3b3e5ef4/transformed/jetified-lifecycle-process-2.4.0/AndroidManifest.xml:33:17-49
	android:name
		ADDED from [androidx.lifecycle:lifecycle-process:2.4.0] /Users/admin/.gradle/caches/transforms-3/d5d05479173d466a6bd0989b3b3e5ef4/transformed/jetified-lifecycle-process-2.4.0/AndroidManifest.xml:32:17-78
